
     Program PWSCF v.7.1 starts on  9Jan2023 at 11:31:48 

     This program is part of the open-source Quantum ESPRESSO suite
     for quantum simulation of materials; please cite
         "P. Giannozzi et al., J. Phys.:Condens. Matter 21 395502 (2009);
         "P. Giannozzi et al., J. Phys.:Condens. Matter 29 465901 (2017);
         "P. Giannozzi et al., J. Chem. Phys. 152 154105 (2020);
          URL http://www.quantum-espresso.org", 
     in publications or presentations arising from this work. More details at
     http://www.quantum-espresso.org/quote

     Parallel version (MPI), running on     1 processors

     MPI processes distributed on     1 nodes
     3347 MiB available memory on the printing compute node when the environment starts

     Waiting for input...
     Reading input from standard input
     Message from routine read_cards :
     DEPRECATED: no units specified in ATOMIC_POSITIONS card
     Message from routine read_cards :
     ATOMIC_POSITIONS: units set to alat

     Current dimensions of program PWSCF are:
     Max number of different atomic species (ntypx) = 10
     Max number of k-points (npk) =  40000
     Max angular momentum in pseudopotentials (lmaxx) =  4

     Subspace diagonalization in iterative solution of the eigenvalue problem:
     a serial algorithm will be used


     G-vector sticks info
     --------------------
     sticks:   dense  smooth     PW     G-vecs:    dense   smooth      PW
     Sum         293     293    101                 3791     3791     751

     Using Slab Decomposition



     bravais-lattice index     =            1
     lattice parameter (alat)  =       4.3000  a.u.
     unit-cell volume          =      79.5070 (a.u.)^3
     number of atoms/cell      =            1
     number of atomic types    =            1
     number of electrons       =        16.00
     number of Kohn-Sham states=           12
     kinetic-energy cutoff     =      50.0000  Ry
     charge density cutoff     =     200.0000  Ry
     scf convergence threshold =      1.0E-09
     mixing beta               =       0.7000
     number of iterations used =            8  plain     mixing
     Exchange-correlation= PBE
                           (   1   4   3   4   0   0   0)

     celldm(1)=   4.300000  celldm(2)=   0.000000  celldm(3)=   0.000000
     celldm(4)=   0.000000  celldm(5)=   0.000000  celldm(6)=   0.000000

     crystal axes: (cart. coord. in units of alat)
               a(1) = (   1.000000   0.000000   0.000000 )  
               a(2) = (   0.000000   1.000000   0.000000 )  
               a(3) = (   0.000000   0.000000   1.000000 )  

     reciprocal axes: (cart. coord. in units 2 pi/alat)
               b(1) = (  1.000000  0.000000  0.000000 )  
               b(2) = (  0.000000  1.000000  0.000000 )  
               b(3) = (  0.000000  0.000000  1.000000 )  


     PseudoPot. # 1 for Fe read from file:
     ../../ppt/Fe.pbe-nc.UPF
     MD5 check sum: 3577c309896fe385a3b9fd26c18a4fef
     Pseudo is Norm-conserving + core correction, Zval = 16.0
     Generated using ONCVPSP code by D. R. Hamann
     Using radial grid of 1426 points,  6 beta functions with: 
                l(1) =   0
                l(2) =   0
                l(3) =   1
                l(4) =   1
                l(5) =   2
                l(6) =   2

     atomic species   valence    mass     pseudopotential
        Fe            16.00    55.85000     Fe( 1.00)

     48 Sym. Ops., with inversion, found



   Cartesian axes

     site n.     atom                  positions (alat units)
         1           Fe  tau(   1) = (   0.0000000   0.0000000   0.0000000  )

     number of k points=   165  Marzari-Vanderbilt smearing, width (Ry)=  0.0200

     Number of k-points >= 100: set verbosity='high' to print them.

     Dense  grid:     3791 G-vectors     FFT dimensions: (  20,  20,  20)

     Estimated max dynamical RAM per process >      18.21 MB

     Check: negative core charge=   -0.000010

     Initial potential from superposition of free atoms

     starting charge      15.9996, renormalised to      16.0000
     Starting wfcs are   10 randomized atomic wfcs +    2 random wfcs

     total cpu time spent up to now is        0.4 secs

     Self-consistent Calculation

     iteration #  1     ecut=    50.00 Ry     beta= 0.70
     Davidson diagonalization with overlap
     ethr =  1.00E-02,  avg # of iterations =  5.0

     total cpu time spent up to now is        1.5 secs

     total energy              =    -250.47074559 Ry
     estimated scf accuracy    <       1.16265389 Ry

     iteration #  2     ecut=    50.00 Ry     beta= 0.70
     Davidson diagonalization with overlap
     ethr =  7.27E-03,  avg # of iterations =  2.3

     total cpu time spent up to now is        2.4 secs

     total energy              =    -250.76407792 Ry
     estimated scf accuracy    <       1.53025233 Ry

     iteration #  3     ecut=    50.00 Ry     beta= 0.70
     Davidson diagonalization with overlap
     ethr =  7.27E-03,  avg # of iterations =  2.0

     total cpu time spent up to now is        3.2 secs

     total energy              =    -251.04331519 Ry
     estimated scf accuracy    <       0.00125186 Ry

     iteration #  4     ecut=    50.00 Ry     beta= 0.70
     Davidson diagonalization with overlap
     ethr =  7.82E-06,  avg # of iterations =  4.8

     total cpu time spent up to now is        4.3 secs

     total energy              =    -251.04401635 Ry
     estimated scf accuracy    <       0.00010712 Ry

     iteration #  5     ecut=    50.00 Ry     beta= 0.70
     Davidson diagonalization with overlap
     ethr =  6.70E-07,  avg # of iterations =  2.1

     total cpu time spent up to now is        5.1 secs

     total energy              =    -251.04403784 Ry
     estimated scf accuracy    <       0.00000096 Ry

     iteration #  6     ecut=    50.00 Ry     beta= 0.70
     Davidson diagonalization with overlap
     ethr =  6.00E-09,  avg # of iterations =  2.0

     total cpu time spent up to now is        6.0 secs

     total energy              =    -251.04403803 Ry
     estimated scf accuracy    <          3.1E-09 Ry

     iteration #  7     ecut=    50.00 Ry     beta= 0.70
     Davidson diagonalization with overlap
     ethr =  1.92E-11,  avg # of iterations =  2.0

     total cpu time spent up to now is        6.9 secs

     End of self-consistent calculation

     Number of k-points >= 100: set verbosity='high' to print the bands.

     the Fermi energy is    18.3845 ev

!    total energy              =    -251.04403804 Ry
     estimated scf accuracy    <          6.1E-10 Ry
     smearing contrib. (-TS)   =      -0.00026588 Ry
     internal energy E=F+TS    =    -251.04377216 Ry

     The total energy is F=E-TS. E is the sum of the following terms:
     one-electron contribution =    -108.79779129 Ry
     hartree contribution      =      62.14229793 Ry
     xc contribution           =     -35.47010323 Ry
     ewald contribution        =    -168.91817557 Ry

     convergence has been achieved in   7 iterations

     Writing all to output data dir ../tmp/fe.save/

     init_run     :      0.33s CPU      0.35s WALL (       1 calls)
     electrons    :      6.34s CPU      6.45s WALL (       1 calls)

     Called by init_run:
     wfcinit      :      0.28s CPU      0.28s WALL (       1 calls)
     potinit      :      0.00s CPU      0.00s WALL (       1 calls)
     hinit0       :      0.04s CPU      0.05s WALL (       1 calls)

     Called by electrons:
     c_bands      :      5.42s CPU      5.51s WALL (       7 calls)
     sum_band     :      0.91s CPU      0.92s WALL (       7 calls)
     v_of_rho     :      0.02s CPU      0.02s WALL (       8 calls)
     mix_rho      :      0.00s CPU      0.00s WALL (       7 calls)

     Called by c_bands:
     init_us_2    :      0.19s CPU      0.19s WALL (    2475 calls)
     init_us_2:cp :      0.18s CPU      0.19s WALL (    2475 calls)
     cegterg      :      5.04s CPU      5.12s WALL (    1155 calls)

     Called by *egterg:
     cdiaghg      :      0.45s CPU      0.46s WALL (    4494 calls)
     h_psi        :      4.38s CPU      4.46s WALL (    4659 calls)
     g_psi        :      0.04s CPU      0.04s WALL (    3339 calls)

     Called by h_psi:
     h_psi:calbec :      0.09s CPU      0.09s WALL (    4659 calls)
     vloc_psi     :      4.18s CPU      4.26s WALL (    4659 calls)
     add_vuspsi   :      0.08s CPU      0.09s WALL (    4659 calls)

     General routines
     calbec       :      0.08s CPU      0.09s WALL (    4659 calls)
     fft          :      0.00s CPU      0.01s WALL (      80 calls)
     ffts         :      0.00s CPU      0.00s WALL (       7 calls)
     fftw         :      4.33s CPU      4.42s WALL (   92680 calls)

     Parallel routines

     PWSCF        :      6.76s CPU      6.90s WALL


   This run was terminated on:  11:31:55   9Jan2023            

=------------------------------------------------------------------------------=
   JOB DONE.
=------------------------------------------------------------------------------=
