
     Program UNFOLD v.7.1 starts on  9Jan2023 at 12: 0:52 

     This program is part of the open-source Quantum ESPRESSO suite
     for quantum simulation of materials; please cite
         "P. Giannozzi et al., J. Phys.:Condens. Matter 21 395502 (2009);
         "P. Giannozzi et al., J. Phys.:Condens. Matter 29 465901 (2017);
         "P. Giannozzi et al., J. Chem. Phys. 152 154105 (2020);
          URL http://www.quantum-espresso.org", 
     in publications or presentations arising from this work. More details at
     http://www.quantum-espresso.org/quote

     Parallel version (MPI), running on     1 processors

     MPI processes distributed on     1 nodes
     1531 MiB available memory on the printing compute node when the environment starts


     Reading xml data from directory:

     ../tmp/fesc.save/

     IMPORTANT: XC functional enforced from input :
     Exchange-correlation= PBE
                           (   1   4   3   4   0   0   0)
     Any further DFT definition will be discarded
     Please, verify this is what you really want


     G-vector sticks info
     --------------------
     sticks:   dense  smooth     PW     G-vecs:    dense   smooth      PW
     Sum         593     593    177                 7627     7627    1275

     Using Slab Decomposition


     Check: negative core charge=   -0.000010
     Reading collected, re-writing distributed wavefunctions
     The determinant of TRMAT is:   2.0
     Supercell crystal axes: (cart. coord. in units of SuperCell_alat)
               a(1) = (   1.000000   0.000000   0.000000 )  
               a(2) = (   0.000000   1.000000   0.000000 )  
               a(3) = (   0.000000   0.000000   0.707107 )  

     Supercell reciprocal axes: (cart. coord. in units 2 pi/SC_alat)
               b(1) = (  1.000000  0.000000  0.000000 )  
               b(2) = (  0.000000  1.000000  0.000000 )  
               b(3) = (  0.000000  0.000000  1.414213 )  

     New crystal axes: (cart. coord. in units of SC_alat)
               a(1) = (   0.500000  -0.500000   0.000000 )  
               a(2) = (   0.500000   0.500000   0.000000 )  
               a(3) = (   0.000000   0.000000   0.707107 )  

     New reciprocal axes: (cart. coord. in units 2 pi/SC_alat)
               b(1) = (  1.000000 -1.000000  0.000000 )  
               b(2) = (  1.000000  1.000000 -0.000000 )  
               b(3) = ( -0.000000  0.000000  1.414213 )  


     Use Atomic Projections on :     2 orbitals
     Atomic orbital Indexing : 
        10   20

     Reading projections from file

     Plotting command for Gnuplot
     set pm3d map interpolate 2,2
     splot './Fe_4S.dat' binary record=(****,-1) format='%double' u 1:2:3

     Doing K =    0.0000000   0.0000000   0.0000000, spin=1
     Doing K =    0.0125000   0.0125000   0.0000000, spin=1
     Doing K =    0.0250000   0.0250000   0.0000000, spin=1
     Doing K =    0.0375000   0.0375000   0.0000000, spin=1
     Doing K =    0.0500000   0.0500000   0.0000000, spin=1
     Doing K =    0.0625000   0.0625000   0.0000000, spin=1
     Doing K =    0.0750000   0.0750000   0.0000000, spin=1
     Doing K =    0.0875000   0.0875000   0.0000000, spin=1
     Doing K =    0.1000000   0.1000000   0.0000000, spin=1
     Doing K =    0.1125000   0.1125000   0.0000000, spin=1
     Doing K =    0.1250000   0.1250000   0.0000000, spin=1
     Doing K =    0.1375000   0.1375000   0.0000000, spin=1
     Doing K =    0.1500000   0.1500000   0.0000000, spin=1
     Doing K =    0.1625000   0.1625000   0.0000000, spin=1
     Doing K =    0.1750000   0.1750000   0.0000000, spin=1
     Doing K =    0.1875000   0.1875000   0.0000000, spin=1
     Doing K =    0.2000000   0.2000000   0.0000000, spin=1
     Doing K =    0.2125000   0.2125000   0.0000000, spin=1
     Doing K =    0.2250000   0.2250000   0.0000000, spin=1
     Doing K =    0.2375000   0.2375000   0.0000000, spin=1
     Doing K =    0.2500000   0.2500000   0.0000000, spin=1
     Doing K =    0.2625000   0.2625000   0.0000000, spin=1
     Doing K =    0.2750000   0.2750000   0.0000000, spin=1
     Doing K =    0.2875000   0.2875000   0.0000000, spin=1
     Doing K =    0.3000000   0.3000000   0.0000000, spin=1
     Doing K =    0.3125000   0.3125000   0.0000000, spin=1
     Doing K =    0.3250000   0.3250000   0.0000000, spin=1
     Doing K =    0.3375000   0.3375000   0.0000000, spin=1
     Doing K =    0.3500000   0.3500000   0.0000000, spin=1
     Doing K =    0.3625000   0.3625000   0.0000000, spin=1
     Doing K =    0.3750000   0.3750000   0.0000000, spin=1
     Doing K =    0.3875000   0.3875000   0.0000000, spin=1
     Doing K =    0.4000000   0.4000000   0.0000000, spin=1
     Doing K =    0.4125000   0.4125000   0.0000000, spin=1
     Doing K =    0.4250000   0.4250000   0.0000000, spin=1
     Doing K =    0.4375000   0.4375000   0.0000000, spin=1
     Doing K =    0.4500000   0.4500000   0.0000000, spin=1
     Doing K =    0.4625000   0.4625000   0.0000000, spin=1
     Doing K =    0.4750000   0.4750000   0.0000000, spin=1
     Doing K =    0.4875000   0.4875000   0.0000000, spin=1
     Doing K =    0.5000000   0.5000000   0.0000000, spin=1
     Doing K =    0.5125000   0.4875000   0.0000000, spin=1
     Doing K =    0.5250000   0.4750000   0.0000000, spin=1
     Doing K =    0.5375000   0.4625000   0.0000000, spin=1
     Doing K =    0.5500000   0.4500000   0.0000000, spin=1
     Doing K =    0.5625000   0.4375000   0.0000000, spin=1
     Doing K =    0.5750000   0.4250000   0.0000000, spin=1
     Doing K =    0.5875000   0.4125000   0.0000000, spin=1
     Doing K =    0.6000000   0.4000000   0.0000000, spin=1
     Doing K =    0.6125000   0.3875000   0.0000000, spin=1
     Doing K =    0.6250000   0.3750000   0.0000000, spin=1
     Doing K =    0.6375000   0.3625000   0.0000000, spin=1
     Doing K =    0.6500000   0.3500000   0.0000000, spin=1
     Doing K =    0.6625000   0.3375000   0.0000000, spin=1
     Doing K =    0.6750000   0.3250000   0.0000000, spin=1
     Doing K =    0.6875000   0.3125000   0.0000000, spin=1
     Doing K =    0.7000000   0.3000000   0.0000000, spin=1
     Doing K =    0.7125000   0.2875000   0.0000000, spin=1
     Doing K =    0.7250000   0.2750000   0.0000000, spin=1
     Doing K =    0.7375000   0.2625000   0.0000000, spin=1
     Doing K =    0.7500000   0.2500000   0.0000000, spin=1
     Doing K =    0.7625000   0.2375000   0.0000000, spin=1
     Doing K =    0.7750000   0.2250000   0.0000000, spin=1
     Doing K =    0.7875000   0.2125000   0.0000000, spin=1
     Doing K =    0.8000000   0.2000000   0.0000000, spin=1
     Doing K =    0.8125000   0.1875000   0.0000000, spin=1
     Doing K =    0.8250000   0.1750000   0.0000000, spin=1
     Doing K =    0.8375000   0.1625000   0.0000000, spin=1
     Doing K =    0.8500000   0.1500000   0.0000000, spin=1
     Doing K =    0.8625000   0.1375000   0.0000000, spin=1
     Doing K =    0.8750000   0.1250000   0.0000000, spin=1
     Doing K =    0.8875000   0.1125000   0.0000000, spin=1
     Doing K =    0.9000000   0.1000000   0.0000000, spin=1
     Doing K =    0.9125000   0.0875000   0.0000000, spin=1
     Doing K =    0.9250000   0.0750000   0.0000000, spin=1
     Doing K =    0.9375000   0.0625000   0.0000000, spin=1
     Doing K =    0.9500000   0.0500000   0.0000000, spin=1
     Doing K =    0.9625000   0.0375000   0.0000000, spin=1
     Doing K =    0.9750000   0.0250000   0.0000000, spin=1
     Doing K =    0.9875000   0.0125000   0.0000000, spin=1
     Doing K =    1.0000000   0.0000000   0.0000000, spin=1
     Doing K =    0.9750000   0.0000000   0.0000000, spin=1
     Doing K =    0.9500000   0.0000000   0.0000000, spin=1
     Doing K =    0.9250000   0.0000000   0.0000000, spin=1
     Doing K =    0.9000000   0.0000000   0.0000000, spin=1
     Doing K =    0.8750000   0.0000000   0.0000000, spin=1
     Doing K =    0.8500000   0.0000000   0.0000000, spin=1
     Doing K =    0.8250000   0.0000000   0.0000000, spin=1
     Doing K =    0.8000000   0.0000000   0.0000000, spin=1
     Doing K =    0.7750000   0.0000000   0.0000000, spin=1
     Doing K =    0.7500000   0.0000000   0.0000000, spin=1
     Doing K =    0.7250000   0.0000000   0.0000000, spin=1
     Doing K =    0.7000000   0.0000000   0.0000000, spin=1
     Doing K =    0.6750000   0.0000000   0.0000000, spin=1
     Doing K =    0.6500000   0.0000000   0.0000000, spin=1
     Doing K =    0.6250000   0.0000000   0.0000000, spin=1
     Doing K =    0.6000000   0.0000000   0.0000000, spin=1
     Doing K =    0.5750000   0.0000000   0.0000000, spin=1
     Doing K =    0.5500000   0.0000000   0.0000000, spin=1
     Doing K =    0.5250000   0.0000000   0.0000000, spin=1
     Doing K =    0.5000000   0.0000000   0.0000000, spin=1
     Doing K =    0.4750000   0.0000000   0.0000000, spin=1
     Doing K =    0.4500000   0.0000000   0.0000000, spin=1
     Doing K =    0.4250000   0.0000000   0.0000000, spin=1
     Doing K =    0.4000000   0.0000000   0.0000000, spin=1
     Doing K =    0.3750000   0.0000000   0.0000000, spin=1
     Doing K =    0.3500000   0.0000000   0.0000000, spin=1
     Doing K =    0.3250000   0.0000000   0.0000000, spin=1
     Doing K =    0.3000000   0.0000000   0.0000000, spin=1
     Doing K =    0.2750000   0.0000000   0.0000000, spin=1
     Doing K =    0.2500000   0.0000000   0.0000000, spin=1
     Doing K =    0.2250000   0.0000000   0.0000000, spin=1
     Doing K =    0.2000000   0.0000000   0.0000000, spin=1
     Doing K =    0.1750000   0.0000000   0.0000000, spin=1
     Doing K =    0.1500000   0.0000000   0.0000000, spin=1
     Doing K =    0.1250000   0.0000000   0.0000000, spin=1
     Doing K =    0.1000000   0.0000000   0.0000000, spin=1
     Doing K =    0.0750000   0.0000000   0.0000000, spin=1
     Doing K =    0.0500000   0.0000000   0.0000000, spin=1
     Doing K =    0.0250000   0.0000000   0.0000000, spin=1
     Doing K =    0.0000000   0.0000000   0.0000000, spin=1
     Doing K =    0.0250000   0.0000000   0.0176777, spin=1
     Doing K =    0.0500000   0.0000000   0.0353553, spin=1
     Doing K =    0.0750000   0.0000000   0.0530330, spin=1
     Doing K =    0.1000000   0.0000000   0.0707107, spin=1
     Doing K =    0.1250000   0.0000000   0.0883883, spin=1
     Doing K =    0.1500000   0.0000000   0.1060660, spin=1
     Doing K =    0.1750000   0.0000000   0.1237436, spin=1
     Doing K =    0.2000000   0.0000000   0.1414213, spin=1
     Doing K =    0.2250000   0.0000000   0.1590990, spin=1
     Doing K =    0.2500000   0.0000000   0.1767766, spin=1
     Doing K =    0.2750000   0.0000000   0.1944543, spin=1
     Doing K =    0.3000000   0.0000000   0.2121320, spin=1
     Doing K =    0.3250000   0.0000000   0.2298096, spin=1
     Doing K =    0.3500000   0.0000000   0.2474873, spin=1
     Doing K =    0.3750000   0.0000000   0.2651650, spin=1
     Doing K =    0.4000000   0.0000000   0.2828426, spin=1
     Doing K =    0.4250000   0.0000000   0.3005203, spin=1
     Doing K =    0.4500000   0.0000000   0.3181980, spin=1
     Doing K =    0.4750000   0.0000000   0.3358756, spin=1
     Doing K =    0.5000000   0.0000000   0.3535533, spin=1
     Doing K =    0.5250000   0.0000000   0.3712309, spin=1
     Doing K =    0.5500000   0.0000000   0.3889086, spin=1
     Doing K =    0.5750000   0.0000000   0.4065863, spin=1
     Doing K =    0.6000000   0.0000000   0.4242639, spin=1
     Doing K =    0.6250000   0.0000000   0.4419416, spin=1
     Doing K =    0.6500000   0.0000000   0.4596193, spin=1
     Doing K =    0.6750000   0.0000000   0.4772969, spin=1
     Doing K =    0.7000000   0.0000000   0.4949746, spin=1
     Doing K =    0.7250000   0.0000000   0.5126523, spin=1
     Doing K =    0.7500000   0.0000000   0.5303299, spin=1
     Doing K =    0.7750000   0.0000000   0.5480076, spin=1
     Doing K =    0.8000000   0.0000000   0.5656852, spin=1
     Doing K =    0.8250000   0.0000000   0.5833629, spin=1
     Doing K =    0.8500000   0.0000000   0.6010406, spin=1
     Doing K =    0.8750000   0.0000000   0.6187182, spin=1
     Doing K =    0.9000000   0.0000000   0.6363959, spin=1
     Doing K =    0.9250000   0.0000000   0.6540736, spin=1
     Doing K =    0.9500000   0.0000000   0.6717512, spin=1
     Doing K =    0.9750000   0.0000000   0.6894289, spin=1
     Doing K =    1.0000000   0.0000000   0.7071066, spin=1
     Doing K =    0.9875000   0.0125000   0.6894289, spin=1
     Doing K =    0.9750000   0.0250000   0.6717512, spin=1
     Doing K =    0.9625000   0.0375000   0.6540736, spin=1
     Doing K =    0.9500000   0.0500000   0.6363959, spin=1
     Doing K =    0.9375000   0.0625000   0.6187182, spin=1
     Doing K =    0.9250000   0.0750000   0.6010406, spin=1
     Doing K =    0.9125000   0.0875000   0.5833629, spin=1
     Doing K =    0.9000000   0.1000000   0.5656852, spin=1
     Doing K =    0.8875000   0.1125000   0.5480076, spin=1
     Doing K =    0.8750000   0.1250000   0.5303299, spin=1
     Doing K =    0.8625000   0.1375000   0.5126523, spin=1
     Doing K =    0.8500000   0.1500000   0.4949746, spin=1
     Doing K =    0.8375000   0.1625000   0.4772969, spin=1
     Doing K =    0.8250000   0.1750000   0.4596193, spin=1
     Doing K =    0.8125000   0.1875000   0.4419416, spin=1
     Doing K =    0.8000000   0.2000000   0.4242639, spin=1
     Doing K =    0.7875000   0.2125000   0.4065863, spin=1
     Doing K =    0.7750000   0.2250000   0.3889086, spin=1
     Doing K =    0.7625000   0.2375000   0.3712309, spin=1
     Doing K =    0.7500000   0.2500000   0.3535533, spin=1
     Doing K =    0.7375000   0.2625000   0.3358756, spin=1
     Doing K =    0.7250000   0.2750000   0.3181980, spin=1
     Doing K =    0.7125000   0.2875000   0.3005203, spin=1
     Doing K =    0.7000000   0.3000000   0.2828426, spin=1
     Doing K =    0.6875000   0.3125000   0.2651650, spin=1
     Doing K =    0.6750000   0.3250000   0.2474873, spin=1
     Doing K =    0.6625000   0.3375000   0.2298096, spin=1
     Doing K =    0.6500000   0.3500000   0.2121320, spin=1
     Doing K =    0.6375000   0.3625000   0.1944543, spin=1
     Doing K =    0.6250000   0.3750000   0.1767766, spin=1
     Doing K =    0.6125000   0.3875000   0.1590990, spin=1
     Doing K =    0.6000000   0.4000000   0.1414213, spin=1
     Doing K =    0.5875000   0.4125000   0.1237436, spin=1
     Doing K =    0.5750000   0.4250000   0.1060660, spin=1
     Doing K =    0.5625000   0.4375000   0.0883883, spin=1
     Doing K =    0.5500000   0.4500000   0.0707107, spin=1
     Doing K =    0.5375000   0.4625000   0.0530330, spin=1
     Doing K =    0.5250000   0.4750000   0.0353553, spin=1
     Doing K =    0.5125000   0.4875000   0.0176777, spin=1
     Doing K =    0.5000000   0.5000000   0.0000000, spin=1
     Doing K =    0.5125000   0.4875000   0.0000000, spin=1
     Doing K =    0.5250000   0.4750000   0.0000000, spin=1
     Doing K =    0.5375000   0.4625000   0.0000000, spin=1
     Doing K =    0.5500000   0.4500000   0.0000000, spin=1
     Doing K =    0.5625000   0.4375000   0.0000000, spin=1
     Doing K =    0.5750000   0.4250000   0.0000000, spin=1
     Doing K =    0.5875000   0.4125000   0.0000000, spin=1
     Doing K =    0.6000000   0.4000000   0.0000000, spin=1
     Doing K =    0.6125000   0.3875000   0.0000000, spin=1
     Doing K =    0.6250000   0.3750000   0.0000000, spin=1
     Doing K =    0.6375000   0.3625000   0.0000000, spin=1
     Doing K =    0.6500000   0.3500000   0.0000000, spin=1
     Doing K =    0.6625000   0.3375000   0.0000000, spin=1
     Doing K =    0.6750000   0.3250000   0.0000000, spin=1
     Doing K =    0.6875000   0.3125000   0.0000000, spin=1
     Doing K =    0.7000000   0.3000000   0.0000000, spin=1
     Doing K =    0.7125000   0.2875000   0.0000000, spin=1
     Doing K =    0.7250000   0.2750000   0.0000000, spin=1
     Doing K =    0.7375000   0.2625000   0.0000000, spin=1
     Doing K =    0.7500000   0.2500000   0.0000000, spin=1
     Doing K =    0.7625000   0.2375000   0.0000000, spin=1
     Doing K =    0.7750000   0.2250000   0.0000000, spin=1
     Doing K =    0.7875000   0.2125000   0.0000000, spin=1
     Doing K =    0.8000000   0.2000000   0.0000000, spin=1
     Doing K =    0.8125000   0.1875000   0.0000000, spin=1
     Doing K =    0.8250000   0.1750000   0.0000000, spin=1
     Doing K =    0.8375000   0.1625000   0.0000000, spin=1
     Doing K =    0.8500000   0.1500000   0.0000000, spin=1
     Doing K =    0.8625000   0.1375000   0.0000000, spin=1
     Doing K =    0.8750000   0.1250000   0.0000000, spin=1
     Doing K =    0.8875000   0.1125000   0.0000000, spin=1
     Doing K =    0.9000000   0.1000000   0.0000000, spin=1
     Doing K =    0.9125000   0.0875000   0.0000000, spin=1
     Doing K =    0.9250000   0.0750000   0.0000000, spin=1
     Doing K =    0.9375000   0.0625000   0.0000000, spin=1
     Doing K =    0.9500000   0.0500000   0.0000000, spin=1
     Doing K =    0.9625000   0.0375000   0.0000000, spin=1
     Doing K =    0.9750000   0.0250000   0.0000000, spin=1
     Doing K =    0.9875000   0.0125000   0.0000000, spin=1
     Doing K =    1.0000000   0.0000000   0.0000000, spin=1
     Doing K =    1.0000000   0.0000000   0.0176777, spin=1
     Doing K =    1.0000000   0.0000000   0.0353553, spin=1
     Doing K =    1.0000000   0.0000000   0.0530330, spin=1
     Doing K =    1.0000000   0.0000000   0.0707107, spin=1
     Doing K =    1.0000000   0.0000000   0.0883883, spin=1
     Doing K =    1.0000000   0.0000000   0.1060660, spin=1
     Doing K =    1.0000000   0.0000000   0.1237436, spin=1
     Doing K =    1.0000000   0.0000000   0.1414213, spin=1
     Doing K =    1.0000000   0.0000000   0.1590990, spin=1
     Doing K =    1.0000000   0.0000000   0.1767766, spin=1
     Doing K =    1.0000000   0.0000000   0.1944543, spin=1
     Doing K =    1.0000000   0.0000000   0.2121320, spin=1
     Doing K =    1.0000000   0.0000000   0.2298096, spin=1
     Doing K =    1.0000000   0.0000000   0.2474873, spin=1
     Doing K =    1.0000000   0.0000000   0.2651650, spin=1
     Doing K =    1.0000000   0.0000000   0.2828426, spin=1
     Doing K =    1.0000000   0.0000000   0.3005203, spin=1
     Doing K =    1.0000000   0.0000000   0.3181980, spin=1
     Doing K =    1.0000000   0.0000000   0.3358756, spin=1
     Doing K =    1.0000000   0.0000000   0.3535533, spin=1
     Doing K =    1.0000000   0.0000000   0.3712309, spin=1
     Doing K =    1.0000000   0.0000000   0.3889086, spin=1
     Doing K =    1.0000000   0.0000000   0.4065863, spin=1
     Doing K =    1.0000000   0.0000000   0.4242639, spin=1
     Doing K =    1.0000000   0.0000000   0.4419416, spin=1
     Doing K =    1.0000000   0.0000000   0.4596193, spin=1
     Doing K =    1.0000000   0.0000000   0.4772969, spin=1
     Doing K =    1.0000000   0.0000000   0.4949746, spin=1
     Doing K =    1.0000000   0.0000000   0.5126523, spin=1
     Doing K =    1.0000000   0.0000000   0.5303299, spin=1
     Doing K =    1.0000000   0.0000000   0.5480076, spin=1
     Doing K =    1.0000000   0.0000000   0.5656852, spin=1
     Doing K =    1.0000000   0.0000000   0.5833629, spin=1
     Doing K =    1.0000000   0.0000000   0.6010406, spin=1
     Doing K =    1.0000000   0.0000000   0.6187182, spin=1
     Doing K =    1.0000000   0.0000000   0.6363959, spin=1
     Doing K =    1.0000000   0.0000000   0.6540736, spin=1
     Doing K =    1.0000000   0.0000000   0.6717512, spin=1
     Doing K =    1.0000000   0.0000000   0.6894289, spin=1
     Doing K =    1.0000000   0.0000000   0.7071066, spin=1
     Done!
