
     Program PWSCF v.6.6 starts on  1May2021 at 12:37:17 

     This program is part of the open-source Quantum ESPRESSO suite
     for quantum simulation of materials; please cite
         "P. Giannozzi et al., J. Phys.:Condens. Matter 21 395502 (2009);
         "P. Giannozzi et al., J. Phys.:Condens. Matter 29 465901 (2017);
          URL http://www.quantum-espresso.org", 
     in publications or presentations arising from this work. More details at
     http://www.quantum-espresso.org/quote

     Parallel version (MPI), running on     8 processors

     MPI processes distributed on     1 nodes
     R & G space division:  proc/nbgrp/npool/nimage =       8
     Fft bands division:     nmany     =       1
     Waiting for input...
     Reading input from standard input

     Current dimensions of program PWSCF are:
     Max number of different atomic species (ntypx) = 10
     Max number of k-points (npk) =  40000
     Max angular momentum in pseudopotentials (lmaxx) =  3
     file Co.pbe-nd-rrkjus.UPF: wavefunction(s)  4S 3D renormalized
     file C.pbe-rrkjus.UPF: wavefunction(s)  2S 2P renormalized

     Subspace diagonalization in iterative solution of the eigenvalue problem:
     one sub-group per band group will be used
     scalapack distributed-memory algorithm (size of sub-group:  2*  2 procs)

     Found symmetry operation: I + ( -0.0000  0.5000  0.0000)
     This is a supercell, fractional translations are disabled

     Parallelization info
     --------------------
     sticks:   dense  smooth     PW     G-vecs:    dense   smooth      PW
     Min         234      93     26                37626     9517    1466
     Max         235      94     27                37639     9538    1479
     Sum        1879     745    211               301087    76173   11765



     bravais-lattice index     =            4
     lattice parameter (alat)  =       9.5057  a.u.
     unit-cell volume          =    3429.1294 (a.u.)^3
     number of atoms/cell      =           28
     number of atomic types    =            2
     number of electrons       =       212.00
     number of Kohn-Sham states=          127
     kinetic-energy cutoff     =      30.0000  Ry
     charge density cutoff     =     300.0000  Ry
     convergence threshold     =      1.0E-08
     mixing beta               =       0.3000
     number of iterations used =            8  local-TF  mixing
     Exchange-correlation=  SLA  PW   PBE  PBE
                           (   1   4   3   4   0   0   0)

     celldm(1)=   9.505700  celldm(2)=   0.000000  celldm(3)=   4.610000
     celldm(4)=   0.000000  celldm(5)=   0.000000  celldm(6)=   0.000000

     crystal axes: (cart. coord. in units of alat)
               a(1) = (   1.000000   0.000000   0.000000 )  
               a(2) = (  -0.500000   0.866025   0.000000 )  
               a(3) = (   0.000000   0.000000   4.610000 )  

     reciprocal axes: (cart. coord. in units 2 pi/alat)
               b(1) = (  1.000000  0.577350 -0.000000 )  
               b(2) = (  0.000000  1.154701  0.000000 )  
               b(3) = (  0.000000 -0.000000  0.216920 )  


     PseudoPot. # 1 for Co read from file:
     ../pseudo/Co.pbe-nd-rrkjus.UPF
     MD5 check sum: 3e47a84addf5e975e0edeaeee2a73f59
     Pseudo is Ultrasoft + core correction, Zval =  9.0
     Generated by new atomic code, or converted to UPF format
     Using radial grid of  961 points,  6 beta functions with: 
                l(1) =   0
                l(2) =   0
                l(3) =   1
                l(4) =   1
                l(5) =   2
                l(6) =   2
     Q(r) pseudized with 0 coefficients 


     PseudoPot. # 2 for C  read from file:
     ../pseudo/C.pbe-rrkjus.UPF
     MD5 check sum: 00fb224312de0c5b6853bd333518df6f
     Pseudo is Ultrasoft, Zval =  4.0
     Generated by new atomic code, or converted to UPF format
     Using radial grid of  627 points,  4 beta functions with: 
                l(1) =   0
                l(2) =   0
                l(3) =   1
                l(4) =   1
     Q(r) pseudized with 0 coefficients 


     atomic species   valence    mass     pseudopotential
        Co             9.00    58.93320     Co( 1.00)
        C              4.00    12.01100     C ( 1.00)

     Starting magnetic structure 
     atomic species   magnetization
        Co           1.000
        C            0.000

      6 Sym. Ops. (no inversion) found



   Cartesian axes

     site n.     atom                  positions (alat units)
         1           C   tau(   1) = (   0.5000000   0.5773503   2.0333183  )
         2           C   tau(   2) = (   0.7500000   0.1443376   2.0333183  )
         3           C   tau(   3) = (   0.2500000   0.4330127   2.0366793  )
         4           C   tau(   4) = (   0.5000000   0.0000000   2.0366793  )
         5           C   tau(   5) = (   0.0000000   0.5773503   2.0333183  )
         6           C   tau(   6) = (   0.2500000   0.1443376   2.0333183  )
         7           C   tau(   7) = (  -0.2500000   0.4330127   2.0366793  )
         8           C   tau(   8) = (   0.0000000   0.0000000   2.0366793  )
         9           Co  tau(   9) = (   0.2500000   0.4330127   1.6105773  )
        10           Co  tau(  10) = (   0.5000000  -0.0000000   1.6105773  )
        11           Co  tau(  11) = (   0.0000000   0.0000000   1.6105773  )
        12           Co  tau(  12) = (  -0.2500000   0.4330127   1.6105773  )
        13           Co  tau(  13) = (  -0.2500000   0.7216878   1.2173128  )
        14           Co  tau(  14) = (   0.2500000   0.7216878   1.2173128  )
        15           Co  tau(  15) = (  -0.0000000   0.2886751   1.2173128  )
        16           Co  tau(  16) = (   0.5000000   0.2886751   1.2173128  )
        17           Co  tau(  17) = (   0.5000000   0.0000000   0.8145106  )
        18           Co  tau(  18) = (   0.0000000   0.0000000   0.8145106  )
        19           Co  tau(  19) = (   0.2500000   0.4330127   0.8145106  )
        20           Co  tau(  20) = (  -0.2500000   0.4330127   0.8145106  )
        21           Co  tau(  21) = (   0.2500000   0.7216878   0.4048521  )
        22           Co  tau(  22) = (  -0.2500000   0.7216878   0.4048521  )
        23           Co  tau(  23) = (  -0.0000000   0.2886752   0.4048521  )
        24           Co  tau(  24) = (   0.5000000   0.2886751   0.4048520  )
        25           Co  tau(  25) = (  -0.2500000   0.4330127   0.0123992  )
        26           Co  tau(  26) = (   0.2500000   0.4330127   0.0123992  )
        27           Co  tau(  27) = (   0.0000000   0.0000000   0.0123993  )
        28           Co  tau(  28) = (   0.5000000  -0.0000000   0.0123992  )

     number of k points=    14  Gaussian smearing, width (Ry)=  0.0100
                       cart. coord. in units 2pi/alat
        k(    1) = (   0.0000000   0.0000000   0.0000000), wk =   0.0100000
        k(    2) = (   0.0000000   0.1154701   0.0000000), wk =   0.0600000
        k(    3) = (   0.0000000   0.2309401   0.0000000), wk =   0.0600000
        k(    4) = (   0.0000000   0.3464102   0.0000000), wk =   0.0600000
        k(    5) = (   0.0000000   0.4618802   0.0000000), wk =   0.0600000
        k(    6) = (   0.0000000  -0.5773503   0.0000000), wk =   0.0300000
        k(    7) = (   0.1000000   0.1732051   0.0000000), wk =   0.0600000
        k(    8) = (   0.1000000   0.2886751   0.0000000), wk =   0.1200000
        k(    9) = (   0.1000000   0.4041452   0.0000000), wk =   0.1200000
        k(   10) = (   0.1000000   0.5196152   0.0000000), wk =   0.1200000
        k(   11) = (   0.2000000   0.3464102   0.0000000), wk =   0.0600000
        k(   12) = (   0.2000000   0.4618802   0.0000000), wk =   0.1200000
        k(   13) = (   0.2000000   0.5773503   0.0000000), wk =   0.0600000
        k(   14) = (   0.3000000   0.5196152   0.0000000), wk =   0.0600000

     Dense  grid:   301087 G-vectors     FFT dimensions: (  54,  54, 243)

     Smooth grid:    76173 G-vectors     FFT dimensions: (  36,  36, 160)

     Estimated max dynamical RAM per process >     255.88 MB

     Estimated total dynamical RAM >       2.00 GB

     Check: negative core charge=   -0.000022
     Generating pointlists ...
     new r_m :   0.1758 (alat units)  1.6708 (a.u.) for type    1
     new r_m :   0.1191 (alat units)  1.1320 (a.u.) for type    2

     Initial potential from superposition of free atoms

     starting charge  211.98922, renormalised to  212.00000
     Starting wfcs are  152 randomized atomic wfcs

     total cpu time spent up to now is        9.2 secs

     Self-consistent Calculation

     iteration #  1     ecut=    30.00 Ry     beta= 0.30
     Davidson diagonalization with overlap
     ethr =  1.00E-02,  avg # of iterations =  3.8

     total cpu time spent up to now is       31.5 secs

     total energy              =   -1572.15620015 Ry
     estimated scf accuracy    <      28.87335566 Ry

     total magnetization       =    42.00 Bohr mag/cell
     absolute magnetization    =    51.65 Bohr mag/cell

     iteration #  2     ecut=    30.00 Ry     beta= 0.30
     Davidson diagonalization with overlap
     ethr =  1.00E-02,  avg # of iterations =  1.2

     total cpu time spent up to now is       46.4 secs

     total energy              =   -1577.16879528 Ry
     estimated scf accuracy    <      13.30183658 Ry

     total magnetization       =    42.00 Bohr mag/cell
     absolute magnetization    =    48.24 Bohr mag/cell

     iteration #  3     ecut=    30.00 Ry     beta= 0.30
     Davidson diagonalization with overlap
     ethr =  6.27E-03,  avg # of iterations =  3.6

     total cpu time spent up to now is       64.0 secs

     total energy              =   -1578.60819018 Ry
     estimated scf accuracy    <       2.13277383 Ry

     total magnetization       =    35.07 Bohr mag/cell
     absolute magnetization    =    40.43 Bohr mag/cell

     iteration #  4     ecut=    30.00 Ry     beta= 0.30
     Davidson diagonalization with overlap
     ethr =  1.01E-03,  avg # of iterations =  4.0

     total cpu time spent up to now is       82.0 secs

     total energy              =   -1578.94664920 Ry
     estimated scf accuracy    <       1.68590978 Ry

     total magnetization       =    35.82 Bohr mag/cell
     absolute magnetization    =    40.46 Bohr mag/cell

     iteration #  5     ecut=    30.00 Ry     beta= 0.30
     Davidson diagonalization with overlap
     ethr =  7.95E-04,  avg # of iterations =  1.6

     total cpu time spent up to now is       97.0 secs

     total energy              =   -1578.71652557 Ry
     estimated scf accuracy    <       2.57320835 Ry

     total magnetization       =    34.92 Bohr mag/cell
     absolute magnetization    =    39.68 Bohr mag/cell

     iteration #  6     ecut=    30.00 Ry     beta= 0.30
     Davidson diagonalization with overlap
     ethr =  7.95E-04,  avg # of iterations =  2.1

     total cpu time spent up to now is      115.6 secs

     total energy              =   -1579.08582048 Ry
     estimated scf accuracy    <       0.49564575 Ry

     total magnetization       =    35.92 Bohr mag/cell
     absolute magnetization    =    40.32 Bohr mag/cell

     iteration #  7     ecut=    30.00 Ry     beta= 0.30
     Davidson diagonalization with overlap
     ethr =  2.34E-04,  avg # of iterations =  2.8

     total cpu time spent up to now is      131.8 secs

     total energy              =   -1579.07475944 Ry
     estimated scf accuracy    <       0.33760638 Ry

     total magnetization       =    34.16 Bohr mag/cell
     absolute magnetization    =    38.71 Bohr mag/cell

     iteration #  8     ecut=    30.00 Ry     beta= 0.30
     Davidson diagonalization with overlap
     ethr =  1.59E-04,  avg # of iterations =  1.5

     total cpu time spent up to now is      146.6 secs

     total energy              =   -1578.99279647 Ry
     estimated scf accuracy    <       0.23315031 Ry

     total magnetization       =    33.64 Bohr mag/cell
     absolute magnetization    =    38.29 Bohr mag/cell

     iteration #  9     ecut=    30.00 Ry     beta= 0.30
     Davidson diagonalization with overlap
     ethr =  1.10E-04,  avg # of iterations =  4.6

     total cpu time spent up to now is      168.9 secs

     total energy              =   -1579.05794097 Ry
     estimated scf accuracy    <       0.46099934 Ry

     total magnetization       =    31.85 Bohr mag/cell
     absolute magnetization    =    36.14 Bohr mag/cell

     iteration # 10     ecut=    30.00 Ry     beta= 0.30
     Davidson diagonalization with overlap
     ethr =  1.10E-04,  avg # of iterations =  1.0

     total cpu time spent up to now is      183.4 secs

     total energy              =   -1579.06263198 Ry
     estimated scf accuracy    <       0.09231877 Ry

     total magnetization       =    32.24 Bohr mag/cell
     absolute magnetization    =    36.49 Bohr mag/cell

     iteration # 11     ecut=    30.00 Ry     beta= 0.30
     Davidson diagonalization with overlap
     ethr =  4.35E-05,  avg # of iterations =  2.2

     total cpu time spent up to now is      199.2 secs

     total energy              =   -1579.06742359 Ry
     estimated scf accuracy    <       0.04797761 Ry

     total magnetization       =    32.19 Bohr mag/cell
     absolute magnetization    =    36.40 Bohr mag/cell

     iteration # 12     ecut=    30.00 Ry     beta= 0.30
     Davidson diagonalization with overlap
     ethr =  2.26E-05,  avg # of iterations =  3.5

     total cpu time spent up to now is      216.5 secs

     total energy              =   -1579.06573786 Ry
     estimated scf accuracy    <       0.03996138 Ry

     total magnetization       =    32.24 Bohr mag/cell
     absolute magnetization    =    36.50 Bohr mag/cell

     iteration # 13     ecut=    30.00 Ry     beta= 0.30
     Davidson diagonalization with overlap
     ethr =  1.88E-05,  avg # of iterations =  1.4

     total cpu time spent up to now is      231.7 secs

     total energy              =   -1579.06278505 Ry
     estimated scf accuracy    <       0.02194470 Ry

     total magnetization       =    32.41 Bohr mag/cell
     absolute magnetization    =    36.76 Bohr mag/cell

     iteration # 14     ecut=    30.00 Ry     beta= 0.30
     Davidson diagonalization with overlap
     ethr =  1.04E-05,  avg # of iterations =  2.5

     total cpu time spent up to now is      248.7 secs

     total energy              =   -1579.06385373 Ry
     estimated scf accuracy    <       0.00782338 Ry

     total magnetization       =    32.49 Bohr mag/cell
     absolute magnetization    =    37.00 Bohr mag/cell

     iteration # 15     ecut=    30.00 Ry     beta= 0.30
     Davidson diagonalization with overlap
     ethr =  3.69E-06,  avg # of iterations =  5.2

     total cpu time spent up to now is      269.0 secs

     total energy              =   -1579.06206410 Ry
     estimated scf accuracy    <       0.00732437 Ry

     total magnetization       =    32.62 Bohr mag/cell
     absolute magnetization    =    37.19 Bohr mag/cell

     iteration # 16     ecut=    30.00 Ry     beta= 0.30
     Davidson diagonalization with overlap
     ethr =  3.45E-06,  avg # of iterations =  2.1

     total cpu time spent up to now is      285.7 secs

     total energy              =   -1579.06207495 Ry
     estimated scf accuracy    <       0.00607182 Ry

     total magnetization       =    32.33 Bohr mag/cell
     absolute magnetization    =    37.04 Bohr mag/cell

     iteration # 17     ecut=    30.00 Ry     beta= 0.30
     Davidson diagonalization with overlap
     ethr =  2.86E-06,  avg # of iterations =  1.5

     total cpu time spent up to now is      301.0 secs

     total energy              =   -1579.06217962 Ry
     estimated scf accuracy    <       0.00352371 Ry

     total magnetization       =    32.39 Bohr mag/cell
     absolute magnetization    =    37.11 Bohr mag/cell

     iteration # 18     ecut=    30.00 Ry     beta= 0.30
     Davidson diagonalization with overlap
     ethr =  1.66E-06,  avg # of iterations =  2.1

     total cpu time spent up to now is      317.0 secs

     total energy              =   -1579.06255393 Ry
     estimated scf accuracy    <       0.00190004 Ry

     total magnetization       =    32.45 Bohr mag/cell
     absolute magnetization    =    37.13 Bohr mag/cell

     iteration # 19     ecut=    30.00 Ry     beta= 0.30
     Davidson diagonalization with overlap
     ethr =  8.96E-07,  avg # of iterations =  1.8

     total cpu time spent up to now is      332.5 secs

     total energy              =   -1579.06269574 Ry
     estimated scf accuracy    <       0.00139414 Ry

     total magnetization       =    32.49 Bohr mag/cell
     absolute magnetization    =    37.13 Bohr mag/cell

     iteration # 20     ecut=    30.00 Ry     beta= 0.30
     Davidson diagonalization with overlap
     ethr =  6.58E-07,  avg # of iterations =  1.8

     total cpu time spent up to now is      348.0 secs

     total energy              =   -1579.06296443 Ry
     estimated scf accuracy    <       0.00103762 Ry

     total magnetization       =    32.50 Bohr mag/cell
     absolute magnetization    =    37.12 Bohr mag/cell

     iteration # 21     ecut=    30.00 Ry     beta= 0.30
     Davidson diagonalization with overlap
     ethr =  4.89E-07,  avg # of iterations =  2.1

     total cpu time spent up to now is      363.9 secs

     total energy              =   -1579.06306649 Ry
     estimated scf accuracy    <       0.00044100 Ry

     total magnetization       =    32.52 Bohr mag/cell
     absolute magnetization    =    37.10 Bohr mag/cell

     iteration # 22     ecut=    30.00 Ry     beta= 0.30
     Davidson diagonalization with overlap
     ethr =  2.08E-07,  avg # of iterations =  2.5

     total cpu time spent up to now is      380.5 secs

     total energy              =   -1579.06313205 Ry
     estimated scf accuracy    <       0.00020860 Ry

     total magnetization       =    32.57 Bohr mag/cell
     absolute magnetization    =    37.13 Bohr mag/cell

     iteration # 23     ecut=    30.00 Ry     beta= 0.30
     Davidson diagonalization with overlap
     ethr =  9.84E-08,  avg # of iterations =  3.0

     total cpu time spent up to now is      397.0 secs

     total energy              =   -1579.06312593 Ry
     estimated scf accuracy    <       0.00013067 Ry

     total magnetization       =    32.59 Bohr mag/cell
     absolute magnetization    =    37.15 Bohr mag/cell

     iteration # 24     ecut=    30.00 Ry     beta= 0.30
     Davidson diagonalization with overlap
     ethr =  6.16E-08,  avg # of iterations =  1.2

     total cpu time spent up to now is      412.0 secs

     total energy              =   -1579.06313750 Ry
     estimated scf accuracy    <       0.00007330 Ry

     total magnetization       =    32.58 Bohr mag/cell
     absolute magnetization    =    37.14 Bohr mag/cell

     iteration # 25     ecut=    30.00 Ry     beta= 0.30
     Davidson diagonalization with overlap
     ethr =  3.46E-08,  avg # of iterations =  2.4

     total cpu time spent up to now is      428.8 secs

     total energy              =   -1579.06314187 Ry
     estimated scf accuracy    <       0.00003801 Ry

     total magnetization       =    32.60 Bohr mag/cell
     absolute magnetization    =    37.14 Bohr mag/cell

     iteration # 26     ecut=    30.00 Ry     beta= 0.30
     Davidson diagonalization with overlap
     ethr =  1.79E-08,  avg # of iterations =  1.9

     total cpu time spent up to now is      444.7 secs

     total energy              =   -1579.06314281 Ry
     estimated scf accuracy    <       0.00001994 Ry

     total magnetization       =    32.60 Bohr mag/cell
     absolute magnetization    =    37.15 Bohr mag/cell

     iteration # 27     ecut=    30.00 Ry     beta= 0.30
     Davidson diagonalization with overlap
     ethr =  9.41E-09,  avg # of iterations =  2.0

     total cpu time spent up to now is      460.5 secs

     total energy              =   -1579.06314408 Ry
     estimated scf accuracy    <       0.00001650 Ry

     total magnetization       =    32.61 Bohr mag/cell
     absolute magnetization    =    37.15 Bohr mag/cell

     iteration # 28     ecut=    30.00 Ry     beta= 0.30
     Davidson diagonalization with overlap
     ethr =  7.78E-09,  avg # of iterations =  1.4

     total cpu time spent up to now is      475.6 secs

     total energy              =   -1579.06314442 Ry
     estimated scf accuracy    <       0.00000794 Ry

     total magnetization       =    32.61 Bohr mag/cell
     absolute magnetization    =    37.15 Bohr mag/cell

     iteration # 29     ecut=    30.00 Ry     beta= 0.30
     Davidson diagonalization with overlap
     ethr =  3.75E-09,  avg # of iterations =  1.5

     total cpu time spent up to now is      490.7 secs

     total energy              =   -1579.06314448 Ry
     estimated scf accuracy    <       0.00000426 Ry

     total magnetization       =    32.61 Bohr mag/cell
     absolute magnetization    =    37.16 Bohr mag/cell

     iteration # 30     ecut=    30.00 Ry     beta= 0.30
     Davidson diagonalization with overlap
     ethr =  2.01E-09,  avg # of iterations =  2.0

     total cpu time spent up to now is      506.9 secs

     total energy              =   -1579.06314459 Ry
     estimated scf accuracy    <       0.00000300 Ry

     total magnetization       =    32.61 Bohr mag/cell
     absolute magnetization    =    37.16 Bohr mag/cell

     iteration # 31     ecut=    30.00 Ry     beta= 0.30
     Davidson diagonalization with overlap
     ethr =  1.42E-09,  avg # of iterations =  1.9

     total cpu time spent up to now is      522.5 secs

     total energy              =   -1579.06314480 Ry
     estimated scf accuracy    <       0.00000135 Ry

     total magnetization       =    32.61 Bohr mag/cell
     absolute magnetization    =    37.16 Bohr mag/cell

     iteration # 32     ecut=    30.00 Ry     beta= 0.30
     Davidson diagonalization with overlap
     ethr =  6.38E-10,  avg # of iterations =  2.2

     total cpu time spent up to now is      538.4 secs

     total energy              =   -1579.06314484 Ry
     estimated scf accuracy    <       0.00000055 Ry

     total magnetization       =    32.61 Bohr mag/cell
     absolute magnetization    =    37.16 Bohr mag/cell

     iteration # 33     ecut=    30.00 Ry     beta= 0.30
     Davidson diagonalization with overlap
     ethr =  2.61E-10,  avg # of iterations =  3.0

     total cpu time spent up to now is      555.1 secs

     total energy              =   -1579.06314489 Ry
     estimated scf accuracy    <       0.00000029 Ry

     total magnetization       =    32.61 Bohr mag/cell
     absolute magnetization    =    37.16 Bohr mag/cell

     iteration # 34     ecut=    30.00 Ry     beta= 0.30
     Davidson diagonalization with overlap
     ethr =  1.36E-10,  avg # of iterations =  1.5

     total cpu time spent up to now is      570.5 secs

     total energy              =   -1579.06314483 Ry
     estimated scf accuracy    <       0.00000015 Ry

     total magnetization       =    32.61 Bohr mag/cell
     absolute magnetization    =    37.16 Bohr mag/cell

     iteration # 35     ecut=    30.00 Ry     beta= 0.30
     Davidson diagonalization with overlap
     ethr =  7.10E-11,  avg # of iterations =  2.3

     total cpu time spent up to now is      586.6 secs

     total energy              =   -1579.06314487 Ry
     estimated scf accuracy    <       0.00000009 Ry

     total magnetization       =    32.61 Bohr mag/cell
     absolute magnetization    =    37.16 Bohr mag/cell

     iteration # 36     ecut=    30.00 Ry     beta= 0.30
     Davidson diagonalization with overlap
     ethr =  4.38E-11,  avg # of iterations =  1.8

     total cpu time spent up to now is      602.2 secs

     total energy              =   -1579.06314492 Ry
     estimated scf accuracy    <       0.00000007 Ry

     total magnetization       =    32.61 Bohr mag/cell
     absolute magnetization    =    37.16 Bohr mag/cell

     iteration # 37     ecut=    30.00 Ry     beta= 0.30
     Davidson diagonalization with overlap
     ethr =  3.11E-11,  avg # of iterations =  1.5

     total cpu time spent up to now is      617.4 secs

     total energy              =   -1579.06314494 Ry
     estimated scf accuracy    <       0.00000006 Ry

     total magnetization       =    32.61 Bohr mag/cell
     absolute magnetization    =    37.16 Bohr mag/cell

     iteration # 38     ecut=    30.00 Ry     beta= 0.30
     Davidson diagonalization with overlap
     ethr =  2.91E-11,  avg # of iterations =  1.1

     total cpu time spent up to now is      632.3 secs

     total energy              =   -1579.06314494 Ry
     estimated scf accuracy    <       0.00000005 Ry

     total magnetization       =    32.61 Bohr mag/cell
     absolute magnetization    =    37.15 Bohr mag/cell

     iteration # 39     ecut=    30.00 Ry     beta= 0.30
     Davidson diagonalization with overlap
     ethr =  2.44E-11,  avg # of iterations =  1.1

     total cpu time spent up to now is      647.2 secs

     total energy              =   -1579.06314493 Ry
     estimated scf accuracy    <       0.00000004 Ry

     total magnetization       =    32.61 Bohr mag/cell
     absolute magnetization    =    37.15 Bohr mag/cell

     iteration # 40     ecut=    30.00 Ry     beta= 0.30
     Davidson diagonalization with overlap
     ethr =  1.85E-11,  avg # of iterations =  2.0

     total cpu time spent up to now is      663.7 secs

     total energy              =   -1579.06314490 Ry
     estimated scf accuracy    <       0.00000002 Ry

     total magnetization       =    32.61 Bohr mag/cell
     absolute magnetization    =    37.15 Bohr mag/cell

     iteration # 41     ecut=    30.00 Ry     beta= 0.30
     Davidson diagonalization with overlap
     ethr =  9.29E-12,  avg # of iterations =  2.2

     total cpu time spent up to now is      680.0 secs

     total energy              =   -1579.06314490 Ry
     estimated scf accuracy    <       0.00000001 Ry

     total magnetization       =    32.61 Bohr mag/cell
     absolute magnetization    =    37.15 Bohr mag/cell

     iteration # 42     ecut=    30.00 Ry     beta= 0.30
     Davidson diagonalization with overlap
     ethr =  5.53E-12,  avg # of iterations =  1.7

     Magnetic moment per site:
     atom:    1    charge:    1.7474    magn:    0.0290    constr:    0.0000
     atom:    2    charge:    1.7474    magn:    0.0290    constr:    0.0000
     atom:    3    charge:    1.7695    magn:   -0.0363    constr:    0.0000
     atom:    4    charge:    1.7695    magn:   -0.0363    constr:    0.0000
     atom:    5    charge:    1.7474    magn:    0.0290    constr:    0.0000
     atom:    6    charge:    1.7474    magn:    0.0290    constr:    0.0000
     atom:    7    charge:    1.7695    magn:   -0.0363    constr:    0.0000
     atom:    8    charge:    1.7695    magn:   -0.0363    constr:    0.0000
     atom:    9    charge:    6.8942    magn:    1.6186    constr:    0.0000
     atom:   10    charge:    6.8942    magn:    1.6186    constr:    0.0000
     atom:   11    charge:    6.8942    magn:    1.6186    constr:    0.0000
     atom:   12    charge:    6.8942    magn:    1.6186    constr:    0.0000
     atom:   13    charge:    6.8658    magn:    1.7005    constr:    0.0000
     atom:   14    charge:    6.8658    magn:    1.7005    constr:    0.0000
     atom:   15    charge:    6.8658    magn:    1.7005    constr:    0.0000
     atom:   16    charge:    6.8658    magn:    1.7005    constr:    0.0000
     atom:   17    charge:    6.8612    magn:    1.7015    constr:    0.0000
     atom:   18    charge:    6.8612    magn:    1.7015    constr:    0.0000
     atom:   19    charge:    6.8612    magn:    1.7015    constr:    0.0000
     atom:   20    charge:    6.8612    magn:    1.7015    constr:    0.0000
     atom:   21    charge:    6.8665    magn:    1.7408    constr:    0.0000
     atom:   22    charge:    6.8665    magn:    1.7408    constr:    0.0000
     atom:   23    charge:    6.8665    magn:    1.7408    constr:    0.0000
     atom:   24    charge:    6.8665    magn:    1.7408    constr:    0.0000
     atom:   25    charge:    6.8403    magn:    1.7981    constr:    0.0000
     atom:   26    charge:    6.8403    magn:    1.7981    constr:    0.0000
     atom:   27    charge:    6.8403    magn:    1.7981    constr:    0.0000
     atom:   28    charge:    6.8403    magn:    1.7981    constr:    0.0000

     total cpu time spent up to now is      695.5 secs

     End of self-consistent calculation

 ------ SPIN UP ------------


          k = 0.0000 0.0000 0.0000 (  9527 PWs)   bands (ev):

   -14.8843  -9.8868  -9.8868  -9.8868  -8.6667  -8.6667  -8.6667  -4.1302
    -3.0384  -2.0470  -1.9831  -1.9831  -1.9831  -0.7191   0.0864   0.2300
     0.2300   0.2300   0.2448   0.3675   0.3675   0.3675   0.5345   0.5345
     0.5345   0.6556   0.6556   0.6556   0.7387   0.7387   0.7387   1.0887
     1.0887   1.0887   1.1971   1.1971   1.3191   1.3191   1.3191   1.4593
     1.4593   1.4593   1.6725   1.6725   1.6725   1.8858   1.8858   1.8858
     2.4889   2.5182   2.5957   2.5957   2.5957   2.5971   2.5971   2.6178
     2.6178   2.6178   2.6226   2.6226   2.6473   2.7098   2.7098   2.8387
     2.8387   2.9204   2.9204   2.9204   2.9607   2.9607   3.0529   3.0529
     3.0529   3.1950   3.1950   3.1950   3.4431   3.4431   3.5195   3.5195
     3.5195   3.5318   3.7173   3.7173   3.7528   3.7528   3.7528   3.9933
     3.9933   3.9933   4.0545   4.0545   4.0545   4.0760   4.0760   4.2711
     4.2711   4.3503   4.3503   4.4253   4.4253   4.4253   4.5059   4.5059
     4.5059   4.5485   4.5485   4.5485   4.5670   4.5670   4.5670   4.6134
     4.6134   4.6134   4.6543   4.6543   4.6543   4.6973   4.6973   4.6973
     5.2717   5.5050   5.5050   5.5050   6.4679   6.4680   6.4680

          k = 0.0000 0.1155 0.0000 (  9539 PWs)   bands (ev):

   -14.8270 -10.4657 -10.0399 -10.0399  -8.4203  -8.4203  -8.0025  -4.0588
    -2.9543  -2.1659  -2.1659  -1.9678  -1.9274  -0.6454   0.1060   0.1496
     0.2445   0.2445   0.2972   0.3584   0.4025   0.4025   0.4914   0.5619
     0.5619   0.6697   0.6995   0.6995   0.7723   0.7759   0.7759   0.9599
     1.0280   1.0787   1.1009   1.1009   1.2485   1.3075   1.3075   1.5008
     1.5009   1.5009   1.6984   1.7065   1.7065   1.8980   1.8980   1.9139
     2.4362   2.4843   2.5330   2.5653   2.5653   2.5759   2.6024   2.6233
     2.6233   2.6306   2.6320   2.6551   2.6831   2.7189   2.7445   2.8154
     2.8542   2.8542   2.8672   2.9297   2.9395   2.9947   3.0346   3.0565
     3.0565   3.1691   3.1691   3.1703   3.3480   3.4281   3.4593   3.4774
     3.4774   3.5197   3.6562   3.6795   3.6795   3.7080   3.7098   3.9119
     3.9119   3.9735   4.0446   4.0477   4.0477   4.0526   4.0710   4.1687
     4.2735   4.3470   4.3470   4.3586   4.4110   4.4149   4.4149   4.4340
     4.4340   4.4626   4.4820   4.5008   4.5077   4.5373   4.5373   4.5792
     4.5966   4.5966   4.6105   4.6179   4.6179   4.6588   4.6634   4.6634
     5.4332   5.5728   5.6532   5.6532   5.8666   6.4316   6.4329

          k = 0.0000 0.2309 0.0000 (  9502 PWs)   bands (ev):

   -14.6551 -11.3237 -10.3114 -10.3114  -7.8746  -7.8746  -6.8916  -3.8468
    -2.7053  -2.6611  -2.6611  -1.7622  -1.7350  -0.4322  -0.3560   0.2188
     0.2737   0.2755   0.2755   0.3749   0.4189   0.4886   0.5036   0.5036
     0.6414   0.6414   0.6872   0.7562   0.8250   0.8250   0.8625   0.8795
     0.8795   0.9512   1.1317   1.1317   1.2671   1.3190   1.3190   1.5645
     1.6024   1.6024   1.7503   1.7838   1.7838   1.9313   1.9313   1.9622
     2.2794   2.4051   2.4206   2.4782   2.4782   2.4930   2.6102   2.6267
     2.6364   2.6364   2.6734   2.7210   2.7262   2.7376   2.7376   2.7464
     2.7668   2.8476   2.9162   2.9305   2.9448   2.9555   2.9583   2.9583
     3.0912   3.0941   3.1211   3.1284   3.1284   3.3109   3.3109   3.3766
     3.3960   3.4362   3.5158   3.5217   3.5217   3.6311   3.6864   3.7106
     3.7106   3.8386   3.8737   3.9336   3.9336   4.0057   4.0260   4.0260
     4.0578   4.2140   4.2505   4.2505   4.2797   4.3297   4.3365   4.3526
     4.3584   4.3584   4.3803   4.3955   4.4277   4.4277   4.4741   4.5047
     4.5174   4.5174   4.5626   4.5626   4.5752   4.6716   4.6716   4.8012
     4.8444   4.9784   5.9468   5.9468   6.1445   6.1598   6.4165

          k = 0.0000 0.3464 0.0000 (  9524 PWs)   bands (ev):

   -14.3696 -12.1310 -10.5432 -10.5432  -7.2104  -7.2104  -5.6726  -3.5000
    -3.3446  -3.3446  -2.3025  -1.4929  -1.3656  -1.0424  -0.7023  -0.1041
    -0.0099   0.2957   0.2957   0.2959   0.3051   0.6264   0.6592   0.6592
     0.6895   0.7011   0.7667   0.7667   0.9859   1.0054   1.0054   1.0068
     1.0270   1.0270   1.1697   1.1697   1.3460   1.3919   1.3919   1.6507
     1.7395   1.7395   1.8263   1.8370   1.8370   1.9873   1.9873   2.0129
     2.0988   2.2074   2.2803   2.3630   2.3630   2.3833   2.4856   2.5884
     2.5884   2.6416   2.6536   2.6614   2.6614   2.7076   2.7381   2.7392
     2.8245   2.8245   2.8585   2.8777   2.9333   2.9480   2.9480   2.9510
     2.9653   2.9917   3.0037   3.0451   3.1450   3.1450   3.1821   3.2368
     3.2495   3.2803   3.2803   3.3986   3.4262   3.4262   3.4933   3.5119
     3.5423   3.6106   3.6106   3.6738   3.8548   3.8929   3.8929   3.9087
     3.9104   4.0423   4.0625   4.0625   4.1388   4.1833   4.1966   4.2493
     4.2659   4.2659   4.2875   4.2911   4.2979   4.2979   4.3449   4.3663
     4.4073   4.4086   4.5018   4.5018   4.5173   4.5634   4.5634   4.6719
     4.6719   5.2755   5.5718   6.2043   6.2043   6.5079   6.5079

          k = 0.0000 0.4619 0.0000 (  9540 PWs)   bands (ev):

   -13.9717 -12.8481 -10.6907 -10.6907  -6.5462  -6.5462  -4.4017  -4.0498
    -4.0498  -3.0289  -1.8578  -1.7669  -1.7653  -1.1294  -0.8948  -0.5198
    -0.1967   0.0323   0.2672   0.2963   0.2963   0.6926   0.8442   0.8442
     0.9187   0.9187   0.9222   0.9309   1.0701   1.0969   1.0969   1.1291
     1.1364   1.1364   1.2942   1.2942   1.4642   1.5280   1.5280   1.7449
     1.7449   1.7501   1.8999   1.9325   1.9439   1.9439   1.9760   1.9926
     1.9926   2.0620   2.1439   2.2501   2.3093   2.3093   2.3852   2.4564
     2.4564   2.5353   2.5495   2.5836   2.5836   2.6080   2.6529   2.7529
     2.7529   2.8192   2.8192   2.8272   2.8272   2.8781   2.9205   2.9205
     2.9527   2.9656   2.9687   2.9795   3.0252   3.0558   3.0558   3.1242
     3.1418   3.1533   3.1533   3.2136   3.2439   3.3387   3.4020   3.4020
     3.4251   3.4443   3.4829   3.5180   3.7106   3.7292   3.7940   3.7940
     3.8410   3.9030   3.9067   3.9095   3.9095   3.9591   4.0358   4.0458
     4.1231   4.1396   4.1960   4.1960   4.2490   4.2490   4.2967   4.3421
     4.4374   4.4876   4.5151   4.5151   4.5350   4.5720   4.5720   4.6652
     4.6652   5.1089   5.7481   6.3171   6.3171   6.6749   6.6749

          k = 0.0000-0.5774 0.0000 (  9514 PWs)   bands (ev):

   -13.4634 -13.4634 -10.7409 -10.7409  -6.1893  -6.1893  -4.4255  -4.4255
    -3.1199  -3.1199  -2.4348  -2.4348  -1.1476  -1.1476  -0.6885  -0.6885
    -0.3933  -0.3933   0.2933   0.2933   0.5654   0.5654   0.9882   0.9882
     1.0265   1.0265   1.0469   1.0469   1.0688   1.0688   1.1065   1.1065
     1.1340   1.1340   1.4901   1.4901   1.6016   1.6016   1.6516   1.6516
     1.6611   1.6611   1.8482   1.8482   1.9078   1.9078   2.0459   2.0459
     2.0635   2.0635   2.1238   2.1238   2.2817   2.2817   2.3950   2.3950
     2.4299   2.4299   2.5134   2.5134   2.5188   2.5188   2.7016   2.7016
     2.7554   2.7554   2.7787   2.7787   2.8540   2.8540   2.8712   2.8712
     2.8838   2.8838   2.9035   2.9035   2.9923   2.9923   3.0313   3.0313
     3.0895   3.0895   3.1469   3.1469   3.2909   3.2909   3.3169   3.3169
     3.4913   3.4913   3.5902   3.5902   3.6674   3.6674   3.7266   3.7266
     3.7531   3.7531   3.8397   3.8397   3.8532   3.8532   3.9920   3.9920
     4.0593   4.0593   4.1832   4.1832   4.2299   4.2299   4.3112   4.3112
     4.4634   4.4634   4.5225   4.5225   4.5763   4.5763   4.6611   4.6611
     4.7812   4.7812   6.2691   6.2691   6.3446   6.3446   6.7495

          k = 0.1000 0.1732 0.0000 (  9531 PWs)   bands (ev):

   -14.7124 -10.8560 -10.8560  -9.7365  -8.5305  -7.4364  -7.4364  -3.9172
    -2.7877  -2.7188  -2.0541  -2.0541  -1.8117  -0.5016  -0.0379  -0.0379
     0.2591   0.3732   0.3732   0.3811   0.3931   0.4950   0.4950   0.5061
     0.5617   0.6905   0.7198   0.7198   0.8085   0.8400   0.8400   0.8405
     0.8455   1.0010   1.0010   1.1876   1.2633   1.2633   1.3966   1.5558
     1.5558   1.5618   1.7425   1.7425   1.7737   1.9071   1.9393   1.9393
     2.3260   2.4403   2.4494   2.4783   2.5158   2.5683   2.5683   2.6096
     2.6396   2.6649   2.6649   2.6963   2.7121   2.7322   2.7349   2.7810
     2.8144   2.8669   2.8669   2.9120   2.9207   2.9796   2.9953   2.9953
     3.0642   3.1306   3.1306   3.1587   3.1822   3.3309   3.3666   3.4382
     3.4382   3.4414   3.5438   3.5438   3.5931   3.6579   3.7033   3.7580
     3.8353   3.8353   3.9016   3.9453   4.0177   4.0177   4.0617   4.0920
     4.1876   4.2463   4.2463   4.2807   4.3098   4.3195   4.3195   4.3649
     4.3723   4.3934   4.3934   4.4469   4.4469   4.4913   4.4969   4.4969
     4.5356   4.5356   4.5416   4.5796   4.6074   4.6074   4.6908   4.7383
     5.4198   5.4198   5.5943   5.5943   5.8456   5.9909   6.4954

          k = 0.1000 0.2887 0.0000 (  9500 PWs)   bands (ev):

   -14.4837 -11.6969 -11.1642  -9.7374  -8.1626  -6.7827  -6.2661  -3.6376
    -3.4691  -2.4888  -2.4614  -1.8339  -1.5097  -0.6407  -0.2979  -0.2175
    -0.1809   0.2095   0.4105   0.4130   0.4417   0.5257   0.5591   0.5706
     0.6103   0.6651   0.7290   0.8337   0.8426   0.9529   0.9672   0.9690
     0.9878   0.9941   1.0528   1.2906   1.3152   1.3301   1.4321   1.6296
     1.6640   1.6869   1.7989   1.8098   1.8344   1.9627   1.9816   1.9831
     2.1651   2.2880   2.3271   2.3506   2.4188   2.4801   2.5348   2.5469
     2.5854   2.6672   2.6773   2.6965   2.7193   2.7261   2.7410   2.8019
     2.8153   2.8386   2.8396   2.8694   2.9119   2.9195   2.9453   2.9689
     3.0330   3.0367   3.0385   3.0431   3.1514   3.1968   3.2380   3.2543
     3.2802   3.3801   3.3924   3.4093   3.4703   3.5394   3.5480   3.5889
     3.6063   3.6611   3.6929   3.7801   3.8364   3.9381   3.9397   3.9554
     3.9631   4.0476   4.0925   4.1513   4.1786   4.2506   4.2703   4.2761
     4.2946   4.2991   4.3239   4.3339   4.3429   4.3767   4.3950   4.4368
     4.4708   4.4885   4.4926   4.5065   4.5562   4.6099   4.7087   4.7982
     4.8772   5.1194   5.4659   5.6769   5.9878   6.0219   6.6386

          k = 0.1000 0.4041 0.0000 (  9504 PWs)   bands (ev):

   -14.1420 -12.4605 -11.3747  -9.8539  -7.5449  -6.0985  -5.0250  -4.2792
    -3.2281  -3.0937  -1.9915  -1.5137  -1.3581  -1.3131  -1.0858  -0.2962
    -0.1908  -0.0965   0.1274   0.2289   0.5475   0.6938   0.7270   0.7377
     0.8243   0.8446   0.8617   0.9496   0.9713   1.0678   1.1010   1.1036
     1.1216   1.1896   1.2123   1.3398   1.4048   1.4457   1.4817   1.7224
     1.7655   1.7816   1.8602   1.8812   1.8914   1.9806   1.9905   2.0254
     2.0379   2.0585   2.1775   2.2747   2.2894   2.3767   2.4278   2.4440
     2.5720   2.5796   2.5816   2.6288   2.6296   2.6298   2.6474   2.7421
     2.7482   2.7767   2.8199   2.8348   2.8692   2.8890   2.9105   2.9480
     2.9683   2.9799   2.9878   3.0528   3.0625   3.0633   3.1096   3.1440
     3.1988   3.2154   3.2214   3.2739   3.2813   3.3759   3.3907   3.4392
     3.4572   3.5095   3.5163   3.5195   3.7077   3.8016   3.8276   3.8351
     3.8629   3.8963   3.9440   4.0397   4.0465   4.0616   4.1112   4.1696
     4.1746   4.2302   4.2623   4.2769   4.2846   4.2932   4.3411   4.4216
     4.4306   4.4656   4.4690   4.4882   4.5120   4.5494   4.5530   4.6090
     4.7126   5.4075   5.5162   5.5607   5.8101   6.1960   6.7798

          k = 0.1000 0.5196 0.0000 (  9532 PWs)   bands (ev):

   -13.6889 -13.1270 -11.4812  -9.9314  -6.9821  -5.5359  -4.9343  -3.7559
    -3.6379  -2.7146  -2.4797  -2.0632  -1.4091  -1.0995  -0.7744  -0.6189
    -0.5916  -0.3599  -0.1181   0.4751   0.6442   0.6863   0.8042   0.8475
     0.9902   1.0456   1.0485   1.0705   1.1004   1.1223   1.1509   1.1898
     1.2012   1.2656   1.4137   1.4581   1.5377   1.6034   1.6127   1.6819
     1.6878   1.7547   1.8150   1.9033   1.9085   1.9258   1.9782   2.0049
     2.0425   2.0561   2.0687   2.1660   2.3059   2.3126   2.3522   2.3980
     2.4213   2.4513   2.5073   2.5126   2.5219   2.5447   2.6120   2.6696
     2.6957   2.7044   2.7746   2.7868   2.7892   2.7928   2.8622   2.8888
     2.8963   2.9337   2.9361   2.9482   2.9657   2.9991   3.0207   3.0604
     3.0739   3.1180   3.1450   3.2028   3.2415   3.3291   3.3711   3.3790
     3.3814   3.5159   3.5751   3.6079   3.6723   3.7200   3.7299   3.7549
     3.8072   3.8102   3.8373   3.8986   3.9348   3.9518   3.9973   4.0597
     4.0626   4.1424   4.1444   4.1936   4.2174   4.2600   4.2973   4.3358
     4.4493   4.4686   4.4807   4.4995   4.5301   4.5547   4.6050   4.6864
     4.7105   4.9831   5.5516   5.8825   6.0538   6.3160   6.6108

          k = 0.2000 0.3464 0.0000 (  9494 PWs)   bands (ev):

   -14.1988 -11.9675 -11.9675  -9.2864  -8.1709  -5.5943  -5.5943  -4.3530
    -3.2952  -2.2052  -2.2052  -2.0668  -1.1539  -1.0557  -0.8617  -0.8617
    -0.1396   0.0785   0.1809   0.1809   0.4561   0.4561   0.7887   0.8120
     0.8187   0.8235   0.8235   0.8579   1.0248   1.0975   1.0975   1.1157
     1.1157   1.1286   1.1871   1.3950   1.3950   1.4360   1.5288   1.7402
     1.7451   1.7451   1.8521   1.8521   1.8716   1.9868   1.9868   2.0219
     2.0536   2.0925   2.1825   2.2564   2.2908   2.4359   2.4607   2.4829
     2.4829   2.5898   2.6268   2.6268   2.6426   2.6640   2.6990   2.6990
     2.7092   2.8010   2.8297   2.8297   2.8614   2.8952   2.9349   2.9409
     2.9409   2.9622   2.9724   3.0426   3.0884   3.0884   3.1186   3.2024
     3.2024   3.2578   3.2792   3.3128   3.3128   3.3385   3.3732   3.4126
     3.5130   3.5130   3.5398   3.5481   3.7257   3.8216   3.8216   3.8353
     3.8637   3.9381   3.9381   4.0426   4.1030   4.1338   4.1338   4.2202
     4.2579   4.2795   4.2795   4.3181   4.3225   4.3225   4.4128   4.4197
     4.4197   4.4578   4.4616   4.5062   4.5062   4.5116   4.7497   4.8602
     4.8602   5.0265   5.0265   5.4972   5.9255   5.9752   5.9752

          k = 0.2000 0.4619 0.0000 (  9513 PWs)   bands (ev):

   -13.8019 -12.6818 -12.1313  -9.1427  -7.7940  -5.1639  -4.9563  -4.3720
    -2.8306  -2.7109  -2.0307  -1.8192  -1.5738  -1.5434  -1.0006  -0.7561
    -0.6954  -0.3180   0.1768   0.2012   0.4277   0.5228   0.8136   0.9191
     1.0202   1.0477   1.0616   1.0926   1.1555   1.2049   1.2179   1.2576
     1.3052   1.3145   1.3682   1.4737   1.5146   1.5347   1.5722   1.7010
     1.7761   1.8163   1.8325   1.8933   1.9147   1.9267   1.9421   1.9485
     1.9634   2.0096   2.0284   2.1524   2.3336   2.3781   2.3850   2.3857
     2.4170   2.4458   2.4949   2.4963   2.5501   2.5675   2.5850   2.6011
     2.6460   2.6478   2.6994   2.7168   2.7218   2.8535   2.8685   2.8843
     2.9016   2.9114   2.9190   2.9799   2.9959   3.0233   3.0470   3.0597
     3.0677   3.1146   3.1271   3.2644   3.2797   3.3063   3.3859   3.4222
     3.4516   3.4960   3.5825   3.6106   3.6620   3.6811   3.7680   3.8255
     3.8390   3.8397   3.8855   4.0012   4.0259   4.0693   4.0910   4.0980
     4.1647   4.1650   4.2598   4.2673   4.2767   4.3045   4.3143   4.3505
     4.4367   4.4368   4.4512   4.4704   4.4784   4.5034   4.6176   4.6551
     4.8004   4.9141   5.1278   5.3671   5.8291   5.9496   6.0007

          k = 0.2000 0.5774 0.0000 (  9534 PWs)   bands (ev):

   -13.2951 -13.2951 -12.1861  -9.1334  -7.5029  -5.5651  -4.6262  -3.1671
    -3.1671  -3.0055  -2.2450  -2.2450  -1.3246  -1.3246  -1.0479  -0.9345
    -0.9345  -0.2119  -0.2119   0.1787   0.5563   0.7032   0.7032   0.9582
     1.0978   1.2003   1.2040   1.2040   1.2490   1.2648   1.3081   1.3081
     1.3412   1.3612   1.4909   1.5869   1.5924   1.5924   1.6145   1.6153
     1.6694   1.7179   1.8389   1.8423   1.8899   1.8899   1.9208   1.9208
     1.9233   2.0589   2.0589   2.0894   2.2832   2.3234   2.3234   2.3644
     2.3834   2.4173   2.4560   2.4560   2.4781   2.5170   2.5170   2.5310
     2.5390   2.6312   2.6696   2.6696   2.6971   2.7230   2.8196   2.8196
     2.8534   2.8619   2.9093   2.9093   2.9148   2.9998   3.0130   3.0982
     3.0982   3.1098   3.1098   3.2689   3.3470   3.3522   3.3522   3.3923
     3.4397   3.4397   3.6090   3.6778   3.6778   3.7252   3.8031   3.8090
     3.8090   3.9022   3.9022   3.9797   3.9797   3.9892   4.0559   4.0559
     4.0834   4.1460   4.1643   4.1643   4.2478   4.2487   4.3129   4.3299
     4.3299   4.4492   4.4496   4.4683   4.4784   4.4784   4.4996   4.8263
     4.9340   4.9396   4.9396   5.1623   5.7890   6.0135   6.4802

          k = 0.3000 0.5196 0.0000 (  9510 PWs)   bands (ev):

   -13.3513 -12.7929 -12.7929  -8.5397  -7.9961  -5.7862  -3.8560  -3.8560
    -2.8761  -2.3058  -2.1865  -2.1865  -1.6855  -1.6855  -1.5042  -0.9890
    -0.3833  -0.3833  -0.2438   0.1955   0.1955   0.7144   0.8787   0.8787
     1.1096   1.2505   1.2565   1.3577   1.3577   1.3718   1.3791   1.3815
     1.3815   1.4498   1.4740   1.5180   1.5840   1.5840   1.6118   1.6433
     1.6907   1.7622   1.7622   1.7930   1.8535   1.8634   1.9304   1.9325
     1.9325   1.9767   1.9767   2.0079   2.3132   2.3132   2.3296   2.3805
     2.3956   2.3956   2.4068   2.4314   2.4445   2.4446   2.4664   2.4847
     2.5832   2.5832   2.6006   2.6113   2.6970   2.7464   2.7464   2.7786
     2.8351   2.8445   2.8445   2.8543   2.9502   3.0671   3.0671   3.0765
     3.0765   3.0992   3.1344   3.3000   3.3510   3.3814   3.3814   3.3968
     3.4049   3.5088   3.5088   3.6609   3.7094   3.7825   3.7825   3.8007
     3.9138   3.9633   3.9865   3.9865   4.0037   4.0629   4.1033   4.1033
     4.1240   4.1515   4.1515   4.1740   4.2982   4.3199   4.3199   4.3239
     4.3512   4.3512   4.3877   4.4213   4.4785   4.4913   4.4913   4.6632
     4.6632   4.9303   4.9532   5.3641   5.3641   5.4982   6.4391

 ------ SPIN DOWN ----------


          k = 0.0000 0.0000 0.0000 (  9527 PWs)   bands (ev):

   -14.9014  -9.9004  -9.9004  -9.9004  -8.6713  -8.6713  -8.6713  -4.1811
    -3.1111  -2.1017  -1.9741  -1.9741  -1.9741  -0.6404   0.6438   0.7221
     0.7221   0.7221   1.1742   1.2239   1.2239   1.4285   1.4285   1.4285
     1.5473   1.5473   1.5473   1.8558   1.8558   1.8558   1.9804   1.9804
     1.9804   2.1158   2.1158   2.1158   2.5177   2.5177   2.5177   2.7679
     2.7679   2.7679   3.0054   3.0054   3.0054   3.1777   3.1777   3.1777
     3.9285   3.9285   3.9285   3.9742   4.1474   4.3400   4.3505   4.3505
     4.3505   4.3695   4.3695   4.3916   4.3916   4.4183   4.4183   4.4183
     4.4772   4.4918   4.4918   4.6322   4.6322   4.7605   4.7605   4.7605
     4.7718   4.7718   4.7718   4.7734   4.7734   4.9245   4.9245   4.9245
     5.3360   5.3360   5.3360   5.3712   5.3740   5.3740   5.3842   5.3842
     5.3842   5.6999   5.6999   6.0552   6.0552   6.0581   6.0581   6.0581
     6.1098   6.1098   6.1098   6.3102   6.3102   6.4154   6.4154   6.4898
     6.4898   6.4898   6.5639   6.5639   6.5639   6.5747   6.5747   6.5747
     6.6041   6.6041   6.6041   6.6505   6.6505   6.6505   6.6876   6.6876
     6.6876   6.7692   6.7692   6.7692   7.3604   7.3604   7.3604

          k = 0.0000 0.1155 0.0000 (  9539 PWs)   bands (ev):

   -14.8440 -10.4784 -10.0528 -10.0528  -8.4253  -8.4253  -8.0076  -4.1093
    -3.0267  -2.1570  -2.1570  -2.0217  -1.9183  -0.5651   0.4417   0.6958
     0.6958   0.7106   0.9798   1.1038   1.2442   1.3154   1.4454   1.4454
     1.4641   1.5687   1.5687   1.7881   1.8770   1.8770   2.0032   2.0178
     2.0178   2.1345   2.1512   2.1512   2.5509   2.5509   2.5510   2.8134
     2.8134   2.8513   3.0381   3.0381   3.0450   3.1884   3.1884   3.2041
     3.9297   3.9356   3.9356   4.0059   4.0647   4.2704   4.2881   4.2881
     4.3229   4.3589   4.3594   4.4070   4.4283   4.4298   4.4298   4.4348
     4.4498   4.5305   4.5347   4.6426   4.6546   4.6546   4.6653   4.7385
     4.7511   4.7512   4.7512   4.7713   4.8106   4.8668   4.8933   4.8933
     5.2012   5.2012   5.2047   5.2732   5.3546   5.3547   5.3844   5.4295
     5.4295   5.6880   5.6950   5.8152   5.8152   5.9479   6.0449   6.0496
     6.0631   6.0631   6.0658   6.3134   6.3713   6.4253   6.4598   6.4599
     6.4599   6.4703   6.4703   6.5004   6.5168   6.5448   6.5448   6.5557
     6.5701   6.5701   6.6155   6.6295   6.6295   6.6442   6.6610   6.6714
     6.6714   6.7233   6.8263   6.8263   7.1382   7.2397   7.5000

          k = 0.0000 0.2309 0.0000 (  9502 PWs)   bands (ev):

   -14.6720 -11.3369 -10.3239 -10.3239  -7.8795  -7.8795  -6.8953  -3.8956
    -2.7763  -2.6532  -2.6532  -1.7849  -1.7528  -0.3444  -0.2209   0.2971
     0.6274   0.6274   0.7777   0.9270   0.9315   1.2360   1.4269   1.4905
     1.4905   1.6342   1.6342   1.6912   1.9447   1.9447   2.0646   2.1211
     2.1211   2.2246   2.2617   2.2617   2.6193   2.6348   2.6348   2.9215
     2.9215   2.9567   3.1251   3.1251   3.1318   3.2137   3.2137   3.2807
     3.7872   3.8638   3.9444   3.9444   4.1247   4.1351   4.1742   4.1742
     4.2137   4.2747   4.3454   4.3508   4.3508   4.4083   4.4801   4.4828
     4.5140   4.5320   4.5320   4.5331   4.5939   4.5939   4.6391   4.6453
     4.6571   4.7123   4.7149   4.7569   4.7687   4.7687   4.8012   4.9190
     4.9955   5.0212   5.0212   5.0687   5.2963   5.3094   5.3270   5.3270
     5.3801   5.4429   5.4429   5.4849   5.6601   5.6844   5.9795   5.9795
     5.9932   6.0349   6.0999   6.3109   6.3135   6.3135   6.3213   6.3364
     6.3441   6.3441   6.3710   6.4155   6.4155   6.4325   6.4510   6.4833
     6.4833   6.5141   6.5350   6.5459   6.5795   6.5795   6.6021   6.6332
     6.6332   6.6368   7.0105   7.0105   7.0637   7.1691   7.6596

          k = 0.0000 0.3464 0.0000 (  9524 PWs)   bands (ev):

   -14.3862 -12.1450 -10.5556 -10.5556  -7.2146  -7.2146  -5.6738  -3.5452
    -3.3385  -3.3385  -2.3679  -1.4828  -1.4028  -1.0023  -0.6808   0.0064
     0.3101   0.3229   0.5448   0.5448   0.8445   1.2509   1.5507   1.5507
     1.5595   1.7039   1.7377   1.7377   2.0538   2.0538   2.1362   2.2603
     2.2603   2.3322   2.4299   2.4299   2.7187   2.7518   2.7518   3.0179
     3.0179   3.0679   3.2248   3.2248   3.2430   3.2567   3.2567   3.3770
     3.5246   3.6827   3.9240   3.9240   3.9466   4.0477   4.0583   4.0583
     4.1185   4.1374   4.1374   4.1432   4.2779   4.3179   4.3837   4.3859
     4.3859   4.4521   4.4587   4.4587   4.5576   4.5632   4.5767   4.5767
     4.6090   4.6614   4.6896   4.7239   4.7723   4.8235   4.8398   4.8398
     4.8427   4.8767   4.9025   4.9735   4.9735   4.9866   5.0881   5.2444
     5.2901   5.3415   5.3415   5.3553   5.6407   5.6962   5.8409   5.8409
     5.8682   6.0181   6.0757   6.1149   6.1168   6.1168   6.1408   6.1751
     6.1811   6.1985   6.1985   6.2576   6.2932   6.2932   6.3185   6.3305
     6.4380   6.4524   6.4524   6.4839   6.5779   6.5779   6.5930   6.6351
     6.6351   6.8089   6.8341   7.1944   7.1944   7.7956   7.7957

          k = 0.0000 0.4619 0.0000 (  9540 PWs)   bands (ev):

   -13.9878 -12.8629 -10.7031 -10.7031  -6.5493  -6.5493  -4.3994  -4.0457
    -4.0457  -3.0672  -1.8453  -1.8163  -1.7694  -1.1183  -0.8971  -0.4186
    -0.1818   0.3034   0.4462   0.4803   0.4803   1.3068   1.6066   1.6066
     1.6341   1.8468   1.8468   2.0210   2.1460   2.1592   2.1592   2.3750
     2.3750   2.3834   2.6274   2.6274   2.8435   2.8918   2.8918   3.0036
     3.0036   3.2010   3.2465   3.2584   3.2584   3.3622   3.3622   3.3899
     3.4770   3.5092   3.7430   3.8232   3.8232   3.8269   3.9350   3.9350
     4.0008   4.0038   4.0437   4.0437   4.1294   4.1399   4.1618   4.1618
     4.3132   4.3655   4.3655   4.3816   4.4361   4.4361   4.4711   4.5024
     4.6323   4.6323   4.6421   4.6509   4.6824   4.7343   4.7773   4.8315
     4.8392   4.8731   4.8731   4.8803   4.9563   5.0907   5.1977   5.1977
     5.2806   5.2929   5.3014   5.3971   5.6501   5.6756   5.7143   5.7143
     5.7444   5.7491   5.8353   5.8802   5.9444   5.9444   5.9805   6.0130
     6.0330   6.1401   6.1401   6.1426   6.2284   6.2284   6.2944   6.3395
     6.3786   6.4461   6.4461   6.5164   6.5685   6.5930   6.5930   6.6267
     6.6346   6.6346   7.1294   7.3542   7.3542   7.8817   7.8817

          k = 0.0000-0.5774 0.0000 (  9514 PWs)   bands (ev):

   -13.4790 -13.4790 -10.7534 -10.7534  -6.1920  -6.1920  -4.4222  -4.4222
    -3.1130  -3.1130  -2.4618  -2.4618  -1.1525  -1.1525  -0.6758  -0.6758
    -0.3070  -0.3070   0.4564   0.4564   0.9117   0.9117   1.6306   1.6306
     1.8975   1.8975   1.9774   1.9774   2.2016   2.2016   2.2826   2.2826
     2.4133   2.4133   2.7901   2.7901   2.8963   2.8963   2.9907   2.9907
     3.0119   3.0119   3.2303   3.2303   3.3481   3.3481   3.4409   3.4409
     3.5593   3.5593   3.6170   3.6170   3.7440   3.7440   3.9016   3.9016
     3.9355   3.9355   3.9916   3.9916   4.0566   4.0566   4.1286   4.1286
     4.2292   4.2292   4.2850   4.2850   4.3917   4.3917   4.4796   4.4796
     4.6329   4.6329   4.6338   4.6338   4.7450   4.7450   4.7505   4.7505
     4.8251   4.8251   4.8851   4.8851   5.1229   5.1229   5.1342   5.1342
     5.3728   5.3728   5.4716   5.4716   5.5533   5.5533   5.6196   5.6196
     5.6631   5.6631   5.8126   5.8126   5.8449   5.8449   5.8836   5.8836
     6.0442   6.0442   6.1331   6.1331   6.2012   6.2012   6.3520   6.3520
     6.4452   6.4452   6.4478   6.4478   6.5447   6.5447   6.6030   6.6030
     6.6318   6.6318   7.4214   7.4214   7.4902   7.4902   7.9109

          k = 0.1000 0.1732 0.0000 (  9531 PWs)   bands (ev):

   -14.7293 -10.8688 -10.8688  -9.7499  -8.5348  -7.4409  -7.4409  -3.9666
    -2.8593  -2.7111  -2.0450  -2.0450  -1.8632  -0.4169   0.1853   0.1853
     0.5255   0.8588   0.8707   0.9115   1.2032   1.2032   1.3675   1.4128
     1.4128   1.5936   1.7160   1.7779   1.7779   2.0162   2.0616   2.0616
     2.1009   2.2071   2.2071   2.2494   2.6020   2.6020   2.6046   2.8310
     2.9262   2.9262   3.0936   3.1040   3.1040   3.1996   3.2367   3.2367
     3.8385   3.8618   3.9197   4.0578   4.0578   4.1753   4.1771   4.2449
     4.2913   4.2913   4.3038   4.3499   4.4251   4.4542   4.4542   4.4809
     4.4892   4.5111   4.5178   4.6085   4.6153   4.6453   4.6498   4.6498
     4.6934   4.6934   4.7026   4.7386   4.8038   4.8282   4.8282   4.8854
     5.0450   5.0760   5.0843   5.0843   5.2852   5.3500   5.3961   5.3961
     5.4302   5.4707   5.5599   5.5599   5.6677   5.6863   6.0098   6.0098
     6.0184   6.0401   6.0850   6.3198   6.3293   6.3293   6.3405   6.4130
     6.4130   6.4156   6.4404   6.4423   6.4423   6.4701   6.4908   6.5090
     6.5090   6.5237   6.5237   6.5283   6.5929   6.6024   6.6024   6.6163
     6.7868   6.7868   6.9452   7.0222   7.0456   7.0456   7.3330

          k = 0.1000 0.2887 0.0000 (  9500 PWs)   bands (ev):

   -14.5004 -11.7105 -11.1772  -9.7500  -8.1672  -6.7862  -6.2686  -3.6845
    -3.4633  -2.5297  -2.4804  -1.8242  -1.5534  -0.5610  -0.2627  -0.1257
    -0.0373   0.4342   0.6903   1.0646   1.1077   1.1173   1.1284   1.4114
     1.5995   1.6745   1.7631   1.8395   1.8881   2.1338   2.1746   2.1794
     2.2306   2.3152   2.3530   2.3816   2.6838   2.6967   2.7029   2.9120
     3.0262   3.0286   3.1804   3.1870   3.1944   3.2433   3.2673   3.3201
     3.6257   3.7473   3.7975   4.0124   4.0525   4.0527   4.1124   4.1202
     4.1511   4.1736   4.2012   4.2802   4.3194   4.3327   4.4042   4.4108
     4.4157   4.4430   4.5334   4.5682   4.5837   4.5872   4.6033   4.6165
     4.6167   4.6332   4.6733   4.7125   4.7579   4.7717   4.8274   4.8784
     4.8802   4.9525   4.9893   5.0292   5.0526   5.0848   5.1016   5.2188
     5.3263   5.3740   5.3752   5.4052   5.6467   5.6857   5.8993   5.9032
     5.9201   6.0250   6.1152   6.1229   6.1333   6.2028   6.2035   6.2087
     6.2836   6.3002   6.3151   6.3324   6.3496   6.3785   6.4258   6.4295
     6.4479   6.4673   6.4911   6.5118   6.5569   6.5960   6.6115   6.6258
     6.6710   6.7106   6.9934   6.9959   7.0717   7.1469   7.5601

          k = 0.1000 0.4041 0.0000 (  9504 PWs)   bands (ev):

   -14.1583 -12.4748 -11.3879  -9.8660  -7.5493  -6.1007  -5.0246  -4.2756
    -3.2698  -3.0869  -2.0495  -1.5027  -1.3430  -1.2967  -1.1080  -0.1990
    -0.0800   0.0049   0.2676   0.6362   1.0625   1.1501   1.4408   1.4862
     1.4921   1.9027   1.9369   1.9409   2.0667   2.1912   2.3092   2.3149
     2.3662   2.4092   2.5274   2.5483   2.7907   2.8197   2.8333   2.9671
     3.0879   3.1487   3.2292   3.2658   3.2928   3.3135   3.3347   3.3560
     3.4067   3.5835   3.7563   3.8111   3.8888   3.9159   3.9500   4.0270
     4.0298   4.0340   4.0582   4.1292   4.1714   4.1811   4.1875   4.2895
     4.3057   4.3273   4.3554   4.4717   4.4874   4.4967   4.5078   4.5440
     4.6130   4.6559   4.6652   4.6733   4.6807   4.7426   4.7470   4.7986
     4.8499   4.8591   4.8835   4.9556   4.9925   5.0036   5.1937   5.2524
     5.2595   5.2947   5.3190   5.3625   5.6582   5.7204   5.7352   5.7451
     5.7609   5.8712   5.9048   5.9815   6.0167   6.0483   6.0900   6.0960
     6.1071   6.1565   6.2164   6.2477   6.2705   6.2894   6.2947   6.3563
     6.4142   6.4296   6.4310   6.4975   6.5375   6.5470   6.5855   6.5968
     6.6052   6.7889   7.0024   7.0309   7.1409   7.2886   7.7776

          k = 0.1000 0.5196 0.0000 (  9532 PWs)   bands (ev):

   -13.7047 -13.1421 -11.4944  -9.9432  -6.9860  -5.5370  -4.9322  -3.7515
    -3.6327  -2.7432  -2.4746  -2.0794  -1.4396  -1.0876  -0.7353  -0.6040
    -0.5566  -0.2836   0.0506   0.7272   1.0367   1.1667   1.1835   1.4697
     1.8641   2.0125   2.0806   2.1303   2.2060   2.2108   2.3513   2.3970
     2.4015   2.4393   2.6977   2.7680   2.9076   2.9203   2.9219   2.9807
     3.0132   3.1077   3.2305   3.2406   3.2840   3.3789   3.4151   3.4267
     3.4551   3.5172   3.6137   3.7000   3.7009   3.7899   3.8374   3.9008
     3.9179   3.9318   3.9821   4.0381   4.0418   4.0492   4.0636   4.1264
     4.2449   4.2646   4.2716   4.2913   4.3603   4.4169   4.4377   4.5146
     4.5508   4.6003   4.6285   4.6478   4.6667   4.7072   4.7671   4.7821
     4.8519   4.9044   4.9080   4.9480   5.0675   5.1462   5.1760   5.2210
     5.2315   5.3621   5.4736   5.4782   5.5413   5.6130   5.6421   5.6559
     5.7355   5.7561   5.7917   5.8006   5.8029   5.9004   5.9915   6.0193
     6.0400   6.0664   6.1033   6.1274   6.2206   6.2528   6.2985   6.3523
     6.4107   6.4231   6.4256   6.5270   6.5459   6.5463   6.5676   6.5826
     6.5901   6.5994   7.0580   7.2051   7.3443   7.3823   7.7287

          k = 0.2000 0.3464 0.0000 (  9494 PWs)   bands (ev):

   -14.2152 -11.9814 -11.9814  -9.2995  -8.1745  -5.5953  -5.5953  -4.3497
    -3.3380  -2.1959  -2.1959  -2.1276  -1.1797  -1.0392  -0.8153  -0.8153
    -0.1229   0.2065   0.5110   0.5110   1.0256   1.0256   1.4356   1.4493
     1.7082   1.7082   1.8624   2.0203   2.1489   2.2531   2.2531   2.3508
     2.4212   2.4700   2.4700   2.5368   2.7624   2.7871   2.7871   2.9137
     3.1294   3.1294   3.1794   3.2628   3.2628   3.3284   3.3284   3.3382
     3.3979   3.6139   3.6869   3.8295   3.8781   3.9430   4.0035   4.0086
     4.0086   4.0919   4.1390   4.1390   4.1806   4.1986   4.2437   4.2437
     4.2747   4.3252   4.4077   4.4077   4.4638   4.5016   4.5932   4.5932
     4.6340   4.6340   4.6703   4.6784   4.6784   4.7294   4.7369   4.7851
     4.8357   4.8834   4.8834   4.9401   5.0341   5.0408   5.1626   5.2309
     5.3064   5.3064   5.3391   5.3733   5.6571   5.7111   5.7621   5.7627
     5.7627   5.9058   5.9058   6.0208   6.0482   6.0482   6.0926   6.1818
     6.2427   6.2427   6.2592   6.2964   6.2964   6.3233   6.3651   6.3932
     6.4325   6.4325   6.4863   6.4998   6.4998   6.5081   6.5587   6.6898
     6.6898   6.7743   6.7743   6.9074   6.9612   7.1692   7.1692

          k = 0.2000 0.4619 0.0000 (  9513 PWs)   bands (ev):

   -13.8178 -12.6964 -12.1453  -9.1550  -7.7977  -5.1625  -4.9558  -4.3697
    -2.8656  -2.7029  -2.0193  -1.8080  -1.5856  -1.5737  -0.9721  -0.7408
    -0.6843  -0.2073   0.3999   0.4924   0.6308   0.9821   1.4626   1.7297
     1.7586   1.8053   2.1692   2.2612   2.2827   2.3679   2.3741   2.4723
     2.5336   2.5694   2.6321   2.6645   2.8229   2.8801   2.9154   2.9296
     3.1223   3.1373   3.1681   3.2485   3.3093   3.3360   3.3378   3.3384
     3.4095   3.4832   3.6209   3.6733   3.7426   3.7850   3.8262   3.8727
     3.9321   3.9422   3.9478   3.9895   4.0290   4.0350   4.1159   4.1665
     4.1817   4.2051   4.2503   4.2963   4.3726   4.4237   4.4416   4.5030
     4.5428   4.5516   4.5636   4.6179   4.6673   4.6963   4.7531   4.8490
     4.8817   4.9035   4.9494   5.0346   5.0756   5.1353   5.2144   5.2433
     5.2555   5.3138   5.4314   5.5271   5.5301   5.5934   5.6219   5.7340
     5.7527   5.7871   5.7935   5.8966   5.9943   6.0162   6.0282   6.0506
     6.0782   6.1792   6.2153   6.2386   6.2743   6.2866   6.2940   6.3247
     6.3811   6.4280   6.4379   6.4516   6.4729   6.4997   6.5106   6.5145
     6.5869   6.7359   6.8088   6.8365   6.8616   7.2518   7.2762

          k = 0.2000 0.5774 0.0000 (  9534 PWs)   bands (ev):

   -13.3104 -13.3104 -12.2002  -9.1453  -7.5068  -5.5643  -4.6249  -3.1606
    -3.1606  -2.9984  -2.2675  -2.2675  -1.3130  -1.3130  -1.0250  -0.9305
    -0.9305  -0.1069  -0.1069   0.3623   0.9688   1.0801   1.0801   1.7829
     1.8387   2.1369   2.1369   2.4171   2.4256   2.4325   2.4325   2.4607
     2.5143   2.5264   2.7434   2.8053   2.8345   2.8825   2.9874   2.9874
     3.0334   3.0589   3.1095   3.2359   3.2622   3.3694   3.3694   3.4331
     3.4373   3.4373   3.5533   3.5533   3.7053   3.7405   3.7607   3.7836
     3.8397   3.8397   3.9402   3.9402   3.9510   3.9956   4.0819   4.1242
     4.1298   4.1912   4.1912   4.3219   4.3219   4.3268   4.3380   4.4833
     4.5402   4.5527   4.5527   4.5868   4.5868   4.7067   4.8436   4.8604
     4.8604   4.9529   4.9529   5.0314   5.1726   5.1758   5.1758   5.1866
     5.3160   5.3160   5.5322   5.5494   5.5494   5.5650   5.6774   5.6774
     5.7446   5.7677   5.7677   5.8651   5.8651   5.9812   5.9996   5.9996
     6.0122   6.1349   6.1505   6.1505   6.2043   6.2770   6.2927   6.3074
     6.3074   6.3768   6.4610   6.4656   6.4957   6.4974   6.5233   6.5233
     6.5893   6.5893   6.7519   6.8110   6.8938   7.2826   7.6491

          k = 0.3000 0.5196 0.0000 (  9510 PWs)   bands (ev):

   -13.3667 -12.8077 -12.8077  -8.5561  -7.9956  -5.7858  -3.8522  -3.8522
    -2.8686  -2.3297  -2.1763  -2.1763  -1.6923  -1.6923  -1.4935  -0.9964
    -0.3159  -0.3159  -0.1602   0.4192   0.4192   1.0509   1.4548   1.4548
     2.1435   2.2076   2.3609   2.3609   2.4521   2.4808   2.5434   2.6508
     2.6533   2.6533   2.6653   2.6755   2.7889   2.8668   2.9110   2.9593
     2.9593   3.0142   3.2040   3.2266   3.2266   3.3808   3.3808   3.3913
     3.3913   3.4090   3.4130   3.5539   3.7299   3.7483   3.7589   3.7589
     3.8275   3.8294   3.8294   3.8924   3.9244   3.9725   4.0797   4.1240
     4.1240   4.1781   4.2060   4.2060   4.2679   4.3101   4.4397   4.4397
     4.4634   4.5316   4.5316   4.5334   4.5642   4.8047   4.8047   4.8865
     4.9243   4.9243   4.9810   5.0679   5.1644   5.1959   5.2074   5.2074
     5.2580   5.4101   5.4101   5.5228   5.5297   5.6565   5.6819   5.6819
     5.7658   5.8570   5.8677   5.8677   5.9891   6.0062   6.0062   6.0067
     6.0806   6.0806   6.1642   6.2083   6.2833   6.2926   6.2926   6.3109
     6.3526   6.3526   6.3729   6.4044   6.4128   6.4128   6.4269   6.5138
     6.5940   6.5940   6.5962   6.7078   6.8325   6.8325   7.6249

     the Fermi energy is     5.3870 ev

!    total energy              =   -1579.06314484 Ry
     estimated scf accuracy    <          8.5E-09 Ry
     smearing contrib. (-TS)   =      -0.01365231 Ry
     internal energy E=F+TS    =   -1579.04949252 Ry

     The total energy is F=E-TS. E is the sum of the following terms:
     one-electron contribution =  -12315.57294900 Ry
     hartree contribution      =    6362.78537338 Ry
     xc contribution           =    -686.08121026 Ry
     ewald contribution        =    5059.81929335 Ry

     total magnetization       =    32.61 Bohr mag/cell
     absolute magnetization    =    37.15 Bohr mag/cell

     convergence has been achieved in  42 iterations

     Forces acting on atoms (cartesian axes, Ry/au):

     atom    1 type  2   force =     0.00000000   -0.00000004    0.00023164
     atom    2 type  2   force =    -0.00000004    0.00000002    0.00023164
     atom    3 type  2   force =    -0.00000000    0.00000000   -0.00351533
     atom    4 type  2   force =     0.00000000   -0.00000000   -0.00351533
     atom    5 type  2   force =     0.00000000    0.00000000    0.00023166
     atom    6 type  2   force =     0.00000004    0.00000002    0.00023164
     atom    7 type  2   force =     0.00000000    0.00000000   -0.00351533
     atom    8 type  2   force =     0.00000000   -0.00000000   -0.00351537
     atom    9 type  1   force =     0.00000017   -0.00000010   -0.00299618
     atom   10 type  1   force =     0.00000000    0.00000020   -0.00299618
     atom   11 type  1   force =     0.00000000    0.00000000   -0.00299812
     atom   12 type  1   force =    -0.00000017   -0.00000010   -0.00299618
     atom   13 type  1   force =     0.00000023   -0.00000013    0.00180974
     atom   14 type  1   force =    -0.00000023   -0.00000013    0.00180974
     atom   15 type  1   force =     0.00000000    0.00000026    0.00180974
     atom   16 type  1   force =     0.00000000    0.00000000    0.00180926
     atom   17 type  1   force =    -0.00000000   -0.00000007    0.00024511
     atom   18 type  1   force =     0.00000000    0.00000000    0.00024478
     atom   19 type  1   force =    -0.00000006    0.00000004    0.00024511
     atom   20 type  1   force =     0.00000006    0.00000004    0.00024511
     atom   21 type  1   force =     0.00000036    0.00000021   -0.00112180
     atom   22 type  1   force =    -0.00000036    0.00000021   -0.00112180
     atom   23 type  1   force =    -0.00000000   -0.00000042   -0.00112180
     atom   24 type  1   force =     0.00000000    0.00000000   -0.00112059
     atom   25 type  1   force =     0.00000031    0.00000018    0.00534751
     atom   26 type  1   force =    -0.00000031    0.00000018    0.00534751
     atom   27 type  1   force =     0.00000000   -0.00000000    0.00534636
     atom   28 type  1   force =     0.00000000   -0.00000035    0.00534751

     Total force =     0.014775     Total SCF correction =     0.000265

     Writing output data file ../tmp/Co_Gr_2x2.save/

     init_run     :      8.52s CPU      9.07s WALL (       1 calls)
     electrons    :    649.07s CPU    686.28s WALL (       1 calls)
     forces       :      4.51s CPU      4.68s WALL (       1 calls)

     Called by init_run:
     wfcinit      :      6.37s CPU      6.78s WALL (       1 calls)
     potinit      :      0.75s CPU      0.77s WALL (       1 calls)
     hinit0       :      1.07s CPU      1.09s WALL (       1 calls)

     Called by electrons:
     c_bands      :    534.63s CPU    559.95s WALL (      42 calls)
     sum_band     :     91.58s CPU    100.64s WALL (      42 calls)
     v_of_rho     :      9.54s CPU      9.74s WALL (      43 calls)
     newd         :      9.27s CPU     11.57s WALL (      43 calls)
     mix_rho      :      4.04s CPU      4.44s WALL (      42 calls)

     Called by c_bands:
     init_us_2    :      5.06s CPU      5.10s WALL (    2408 calls)
     cegterg      :    511.83s CPU    537.01s WALL (    1176 calls)

     Called by *egterg:
     cdiaghg      :     58.43s CPU     59.91s WALL (    3772 calls)
     h_psi        :    280.89s CPU    303.24s WALL (    3800 calls)
     s_psi        :     54.34s CPU     54.41s WALL (    3800 calls)
     g_psi        :      1.06s CPU      1.07s WALL (    2596 calls)

     Called by h_psi:
     h_psi:calbec :     55.59s CPU     57.12s WALL (    3800 calls)
     vloc_psi     :    169.61s CPU    190.30s WALL (    3800 calls)
     add_vuspsi   :     54.41s CPU     54.54s WALL (    3800 calls)

     General routines
     calbec       :     83.53s CPU     85.81s WALL (    5088 calls)
     fft          :      2.99s CPU      3.28s WALL (    1088 calls)
     ffts         :      1.99s CPU      2.23s WALL (    4161 calls)
     fftw         :    188.23s CPU    211.20s WALL (  782620 calls)
     interpolate  :      0.28s CPU      0.31s WALL (      86 calls)

     Parallel routines
     fft_scatt_xy :     39.44s CPU     44.30s WALL (  787869 calls)
     fft_scatt_yz :     79.83s CPU     90.31s WALL (  787869 calls)

     PWSCF        :  11m 2.47s CPU  11m40.84s WALL


   This run was terminated on:  12:48:57   1May2021            

=------------------------------------------------------------------------------=
   JOB DONE.
=------------------------------------------------------------------------------=
